<svg xmlns="http://www.w3.org/2000/svg" width="1920.11" height="1080.006" viewBox="0 0 1920.11 1080.006">
  <g id="Teacher_PortaL_bG_VECTOR_1_brown_w-01" data-name="Teacher PortaL bG VECTOR 1 brown w-01" transform="translate(537 90)">
    <rect id="Rectangle_23" data-name="Rectangle 23" width="1920" height="1080" transform="translate(-537 -90)" fill="#e9f1f7"/>
    <rect id="Rectangle_24" data-name="Rectangle 24" width="1920.11" height="38.694" transform="translate(-537 951.313)" fill="#53be4e"/>
    <path id="Path_152" data-name="Path 152" d="M837.8,277h64.116a11.036,11.036,0,0,0,10.33-7.1c2.264-5.975,3.979-14.554-1.029-21.005a10.411,10.411,0,0,0-5.849-3.683c-2.975-.707-7.659-2.235-8.991-5.046-2-4.216-3.473-16.7-22.854-9.319-9.319,3.55-11.316-3.772-22.188,1.553-8.824,4.322-13.313,8.875-11.76,18.86,0,0-10.65,3.228-10.65,13.535C828.93,272.861,832.924,277,837.8,277Z" transform="translate(0 -0.167)" fill="#fff"/>
    <circle id="Ellipse_16" data-name="Ellipse 16" cx="65.28" cy="65.28" r="65.28" transform="translate(1183.44 60.429)" fill="#ff855c"/>
    <path id="Path_153" data-name="Path 153" d="M1266.16,172.06h-2.85a22.17,22.17,0,0,0-28.712-12.079,54.287,54.287,0,0,0-53.283-44.862h0a54.252,54.252,0,0,0-54.093,54.093h0q0,1.433.077,2.847h-3.493a28.47,28.47,0,0,0,0,56.94h142.351a28.47,28.47,0,0,0,0-56.94Z" fill="#dbe7f1"/>
    <path id="Path_154" data-name="Path 154" d="M589.518,214.037h-4.747a36.974,36.974,0,0,0-47.885-20.144c-7.364-42.348-44.494-74.82-88.864-74.82h0c-49.619,0-90.216,40.6-90.216,90.216h0q0,2.389.128,4.748h-5.826a47.482,47.482,0,1,0,0,94.964h237.41a47.482,47.482,0,1,0,0-94.964Z" fill="#dbe7f1"/>
    <path id="Path_344" data-name="Path 344" d="M589.518,214.037h-4.747a36.974,36.974,0,0,0-47.885-20.144c-7.364-42.348-44.494-74.82-88.864-74.82h0c-49.619,0-90.216,40.6-90.216,90.216h0q0,2.389.128,4.748h-5.826a47.482,47.482,0,1,0,0,94.964h237.41a47.482,47.482,0,1,0,0-94.964Z" transform="translate(-734.626)" fill="#dbe7f1"/>
    <path id="Path_155" data-name="Path 155" d="M236.036,601h-3a23.333,23.333,0,0,0-30.218-12.712,57.136,57.136,0,0,0-56.08-47.216h0A57.1,57.1,0,0,0,89.809,598h0q0,1.508.081,3H86.213a29.964,29.964,0,1,0,0,59.929H236.036a29.964,29.964,0,1,0,0-59.929Z" transform="translate(0 -0.427)" fill="#dbe7f1"/>
    <path id="Path_156" data-name="Path 156" d="M587.872,492.7A42.024,42.024,0,0,0,546,452.1h0a42.025,42.025,0,0,0-41.874,40.587h-18.57A24.73,24.73,0,0,0,460.9,517.342h0A24.73,24.73,0,0,0,485.553,542H587.239A24.73,24.73,0,0,0,611.9,517.342h0A24.728,24.728,0,0,0,587.872,492.7Z" transform="translate(0 -0.345)" fill="#fff"/>
    <path id="Path_157" data-name="Path 157" d="M1085.65,405.185a66.331,66.331,0,0,0-66.095-64.088h0a66.332,66.332,0,0,0-66.1,64.063H924.145a39.034,39.034,0,0,0-38.92,38.92h0A39.034,39.034,0,0,0,924.145,483h160.5a39.034,39.034,0,0,0,38.92-38.92h0A39.031,39.031,0,0,0,1085.65,405.185Z" transform="translate(0 -0.276)" fill="#fff"/>
    <path id="Path_158" data-name="Path 158" d="M111.307,150.113A18.7,18.7,0,0,0,92.67,132.041h0a18.7,18.7,0,0,0-18.637,18.064H65.767a11.007,11.007,0,0,0-10.975,10.975h0a11.007,11.007,0,0,0,10.975,10.975h45.258A11.007,11.007,0,0,0,122,161.081h0a11.006,11.006,0,0,0-10.693-10.968Z" fill="#fff"/>
    <path id="Path_345" data-name="Path 345" d="M185.935,173.977a43.4,43.4,0,0,0-43.248-41.935h0A43.4,43.4,0,0,0,99.439,173.96H80.259a25.541,25.541,0,0,0-25.467,25.467h0a25.542,25.542,0,0,0,25.467,25.467H185.281a25.542,25.542,0,0,0,25.467-25.466h0a25.539,25.539,0,0,0-24.813-25.451Z" transform="translate(-308.374 284.262)" fill="#fff"/>
    <path id="Path_159" data-name="Path 159" d="M1308.06,630.9a18.46,18.46,0,0,0-18.394-17.836h0a18.46,18.46,0,0,0-18.394,17.829h-8.158a10.863,10.863,0,0,0-10.832,10.832h0a10.863,10.863,0,0,0,10.831,10.832h44.669a10.864,10.864,0,0,0,10.832-10.832h0A10.862,10.862,0,0,0,1308.06,630.9Z" transform="translate(0 -0.443)" fill="#fff"/>
    <path id="Path_160" data-name="Path 160" d="M1072.8,689.528h125.04l35.73,260.834H1033.92Z" transform="translate(0 -0.687)" fill="#fddfbb"/>
    <g id="Group_20" data-name="Group 20" transform="translate(1068.141 731.893)" opacity="0.67">
      <rect id="Rectangle_25" data-name="Rectangle 25" width="21.717" height="7.894" transform="translate(43.969 16.334)" fill="#fcedd8"/>
      <path id="Path_161" data-name="Path 161" d="M1112.63,749.3h-22.767v-8.986h22.767Zm-21.717-1.091h20.667v-6.8h-20.666Z" transform="translate(-1068.141 -732.418)" fill="#fcedd8"/>
      <path id="Path_162" data-name="Path 162" d="M1134.35,741.4h-22.77v-8.986h22.768Zm-21.717-1.091H1133.3v-6.8H1112.63Z" transform="translate(-1068.141 -732.418)" fill="#fcedd8"/>
      <path id="Path_163" data-name="Path 163" d="M1090.91,757.192h-22.769v-8.986h22.769Zm-21.718-1.091h20.667v-6.8h-20.667Z" transform="translate(-1068.141 -732.418)" fill="#ff855c" opacity="0.31"/>
      <path id="Path_164" data-name="Path 164" d="M1112.63,765.086h-22.767V756.1h22.767Zm-21.717-1.091h20.667v-6.8h-20.666Z" transform="translate(-1068.141 -732.418)" fill="#ff855c" opacity="0.31"/>
    </g>
    <path id="Path_165" data-name="Path 165" d="M1131.17,689.528h66.67l35.73,260.834h-97.14Z" transform="translate(0 -0.687)" fill="#fcedd8"/>
    <path id="Path_166" data-name="Path 166" d="M1196.13,726.088H1071.09c-9.922,0-17.3-9.522-15.187-19.589l14.458-68.754a16.149,16.149,0,0,1,6.895-10.211l49.6-32.489a15.057,15.057,0,0,1,16.463-.08l53.4,34.258a16.212,16.212,0,0,1,7.269,11.849l7.588,66.986C1212.65,717.655,1205.43,726.088,1196.13,726.088Z" transform="translate(0 -0.475)" fill="#ea6b49"/>
    <path id="Path_167" data-name="Path 167" d="M1184.96,703.715H1082.25c-8.149,0-14.213-6.81-12.474-14.009l11.875-49.169a11.636,11.636,0,0,1,5.663-7.3L1128.054,610a13.926,13.926,0,0,1,13.522-.057l43.858,24.5a11.5,11.5,0,0,1,5.97,8.473l6.233,47.9C1198.53,697.685,1192.6,703.715,1184.96,703.715Z" transform="translate(0 -0.467)" fill="#ff855c" opacity="0.79"/>
    <path id="Path_168" data-name="Path 168" d="M1133.74,680.8h0c-9.286,0-16.813-7.818-16.813-17.462h0c0-9.644,7.528-17.462,16.813-17.462h0c9.286,0,16.813,7.818,16.813,17.462h0C1150.56,672.979,1143.03,680.8,1133.74,680.8Z" transform="translate(0 -0.464)" fill="#f7d7b5"/>
    <path id="Path_169" data-name="Path 169" d="M1133.74,684.617c-11.3,0-20.491-9.547-20.491-21.282s9.193-21.281,20.491-21.281,20.491,9.547,20.491,21.281S1145.04,684.617,1133.74,684.617Zm0-34.924a13.652,13.652,0,1,0,13.135,13.642,13.411,13.411,0,0,0-13.135-13.642Z" transform="translate(0 -0.465)" fill="#f7d7b5"/>
    <path id="Path_170" data-name="Path 170" d="M1043.7,709.146l11.63,10.589a2.2,2.2,0,0,1,.191,3.023l-81.371,96.4a2.01,2.01,0,0,1-2.911.2l-11.63-10.589a2.2,2.2,0,0,1-.191-3.023l81.368-96.4a2.009,2.009,0,0,1,2.913-.2Z" transform="translate(0 -0.554)" fill="#fcedd8"/>
    <path id="Path_171" data-name="Path 171" d="M973.081,822.809A4.455,4.455,0,0,1,970,821.552l-21.515-20.777a4.237,4.237,0,0,1-.315-5.711l81.48-98.983a2.562,2.562,0,0,1,3.7-.3,2.8,2.8,0,0,1,.29,3.848l-80.686,98.016,20.06,19.372,80.7-97.9a2.563,2.563,0,0,1,3.7-.3,2.8,2.8,0,0,1,.287,3.847l-81.194,98.5a4.487,4.487,0,0,1-3.178,1.634C973.25,822.8,973.165,822.809,973.081,822.809Z" transform="translate(0 -0.554)" fill="#ff855c"/>
    <path id="Path_172" data-name="Path 172" d="M981.843,812.752a2.566,2.566,0,0,1-1.775-.718l-23.018-21.94a2.8,2.8,0,0,1-.159-3.855,2.559,2.559,0,0,1,3.711-.165l23.019,21.94a2.8,2.8,0,0,1,.159,3.855,2.577,2.577,0,0,1-1.936.884Z" transform="translate(0 -0.56)" fill="#ff855c"/>
    <path id="Path_173" data-name="Path 173" d="M990.3,801.88a2.566,2.566,0,0,1-1.776-.718l-23.019-21.94a2.8,2.8,0,0,1-.159-3.855,2.559,2.559,0,0,1,3.712-.165l23.019,21.94a2.8,2.8,0,0,1,.159,3.855A2.577,2.577,0,0,1,990.3,801.88Z" transform="translate(0 -0.553)" fill="#ff855c"/>
    <path id="Path_174" data-name="Path 174" d="M998.762,789.917a2.562,2.562,0,0,1-1.82-.762L974.974,767.22a2.8,2.8,0,0,1-.073-3.857,2.557,2.557,0,0,1,3.714-.076l21.968,21.935a2.8,2.8,0,0,1,.073,3.857,2.569,2.569,0,0,1-1.894.838Z" transform="translate(0 -0.544)" fill="#ff855c"/>
    <path id="Path_175" data-name="Path 175" d="M1008.27,779.05a2.573,2.573,0,0,1-1.867-.808L984.44,755.215a2.8,2.8,0,0,1,.018-3.859,2.561,2.561,0,0,1,3.716.018l21.963,23.027a2.8,2.8,0,0,1-.017,3.859,2.574,2.574,0,0,1-1.849.79Z" transform="translate(0 -0.536)" fill="#ff855c"/>
    <path id="Path_176" data-name="Path 176" d="M1016.73,768.178a2.563,2.563,0,0,1-1.82-.762L992.937,745.48a2.8,2.8,0,0,1-.073-3.857,2.555,2.555,0,0,1,3.714-.075l21.968,21.936a2.8,2.8,0,0,1,.073,3.857,2.57,2.57,0,0,1-1.889.838Z" transform="translate(0 -0.529)" fill="#ff855c"/>
    <path id="Path_177" data-name="Path 177" d="M1027.28,757.316a2.566,2.566,0,0,1-1.775-.718l-23.019-21.94a2.8,2.8,0,0,1-.159-3.855,2.56,2.56,0,0,1,3.712-.166l23.019,21.94a2.8,2.8,0,0,1,.159,3.855A2.577,2.577,0,0,1,1027.28,757.316Z" transform="translate(0 -0.521)" fill="#ff855c"/>
    <path id="Path_178" data-name="Path 178" d="M1036.79,745.357a2.566,2.566,0,0,1-1.775-.718L1012,722.7a2.8,2.8,0,0,1-.159-3.855,2.56,2.56,0,0,1,3.712-.165l23.019,21.94a2.8,2.8,0,0,1,.159,3.855,2.577,2.577,0,0,1-1.941.883Z" transform="translate(0 -0.512)" fill="#ff855c"/>
    <path id="Path_179" data-name="Path 179" d="M1046.3,734.491a2.56,2.56,0,0,1-1.732-.678l-24.07-21.946a2.8,2.8,0,0,1-.241-3.851,2.56,2.56,0,0,1,3.708-.25l24.07,21.946a2.8,2.8,0,0,1,.241,3.851,2.582,2.582,0,0,1-1.976.928Z" transform="translate(0 -0.504)" fill="#ff855c"/>
    <path id="Path_180" data-name="Path 180" d="M1055.81,723.623a2.562,2.562,0,0,1-1.78-.723l-24.064-23.037a2.8,2.8,0,0,1-.151-3.855,2.558,2.558,0,0,1,3.712-.157l24.065,23.037a2.8,2.8,0,0,1,.151,3.855,2.572,2.572,0,0,1-1.932.879Z" transform="translate(0 -0.496)" fill="#ff855c"/>
    <path id="Path_181" data-name="Path 181" d="M1073.28,699.52l15.966,14.4a2.2,2.2,0,0,1,.205,3.021L990.187,835.665a2.01,2.01,0,0,1-2.909.213l-15.966-14.4a2.2,2.2,0,0,1-.205-3.022l99.263-118.725a2.01,2.01,0,0,1,2.91-.213Z" transform="translate(0 -0.563)" fill="#edc9a2"/>
    <path id="Path_182" data-name="Path 182" d="M1225.18,617.752l-11.63-10.589a2.2,2.2,0,0,1-.191-3.023l81.369-96.4a2.009,2.009,0,0,1,2.91-.2l11.63,10.589a2.2,2.2,0,0,1,.191,3.023l-81.368,96.4a2.009,2.009,0,0,1-2.91.2Z" transform="translate(0 -0.396)" fill="#fcedd8"/>
    <path id="Path_183" data-name="Path 183" d="M1237.23,631.773a2.56,2.56,0,0,1-1.707-.655,2.8,2.8,0,0,1-.29-3.847l80.686-98.017-20.06-19.372-80.7,97.9a2.559,2.559,0,0,1-3.7.3,2.8,2.8,0,0,1-.287-3.847l81.194-98.5a4.485,4.485,0,0,1,3.177-1.634,4.412,4.412,0,0,1,3.335,1.249l21.516,20.778a4.236,4.236,0,0,1,.315,5.711l-81.48,98.983A2.581,2.581,0,0,1,1237.23,631.773Z" transform="translate(0 -0.401)" fill="#ff855c"/>
    <path id="Path_184" data-name="Path 184" d="M1310.05,541.543a2.565,2.565,0,0,1-1.775-.718l-23.019-21.94a2.8,2.8,0,0,1-.159-3.855,2.559,2.559,0,0,1,3.712-.165l23.019,21.94a2.8,2.8,0,0,1,.159,3.855A2.577,2.577,0,0,1,1310.05,541.543Z" transform="translate(0 -0.367)" fill="#ff855c"/>
    <path id="Path_185" data-name="Path 185" d="M1301.6,552.415a2.563,2.563,0,0,1-1.775-.718l-23.019-21.94a2.8,2.8,0,0,1-.159-3.855,2.558,2.558,0,0,1,3.712-.165l23.019,21.94a2.8,2.8,0,0,1,.159,3.855A2.577,2.577,0,0,1,1301.6,552.415Z" transform="translate(0 -0.375)" fill="#ff855c"/>
    <path id="Path_186" data-name="Path 186" d="M1292.09,564.373a2.564,2.564,0,0,1-1.82-.761L1268.3,541.676a2.8,2.8,0,0,1-.073-3.858,2.558,2.558,0,0,1,3.714-.076l21.968,21.935a2.8,2.8,0,0,1,.073,3.858,2.571,2.571,0,0,1-1.894.837Z" transform="translate(0 -0.383)" fill="#ff855c"/>
    <path id="Path_187" data-name="Path 187" d="M1282.57,576.331a2.572,2.572,0,0,1-1.867-.809L1258.74,552.5a2.8,2.8,0,0,1,.017-3.858,2.558,2.558,0,0,1,3.716.018l21.966,23.026a2.8,2.8,0,0,1-.017,3.858,2.569,2.569,0,0,1-1.852.79Z" transform="translate(0 -0.391)" fill="#ff855c"/>
    <path id="Path_188" data-name="Path 188" d="M1274.12,586.112a2.565,2.565,0,0,1-1.82-.761l-21.968-21.935a2.8,2.8,0,0,1-.073-3.858,2.559,2.559,0,0,1,3.714-.076l21.968,21.935a2.8,2.8,0,0,1,.073,3.858,2.572,2.572,0,0,1-1.894.837Z" transform="translate(0 -0.399)" fill="#ff855c"/>
    <path id="Path_189" data-name="Path 189" d="M1264.61,596.979a2.564,2.564,0,0,1-1.775-.718l-23.019-21.94a2.8,2.8,0,0,1-.159-3.855,2.558,2.558,0,0,1,3.712-.165l23.019,21.94a2.8,2.8,0,0,1,.159,3.855A2.577,2.577,0,0,1,1264.61,596.979Z" transform="translate(0 -0.406)" fill="#ff855c"/>
    <path id="Path_190" data-name="Path 190" d="M1255.1,608.938a2.566,2.566,0,0,1-1.775-.718l-23.019-21.941a2.8,2.8,0,0,1-.159-3.855,2.56,2.56,0,0,1,3.712-.165l23.019,21.941a2.8,2.8,0,0,1,.159,3.855A2.578,2.578,0,0,1,1255.1,608.938Z" transform="translate(0 -0.415)" fill="#ff855c"/>
    <path id="Path_191" data-name="Path 191" d="M1246.65,619.81a2.562,2.562,0,0,1-1.732-.678l-24.069-21.946a2.8,2.8,0,0,1-.241-3.851,2.562,2.562,0,0,1,3.708-.25l24.068,21.945a2.8,2.8,0,0,1,.241,3.851A2.58,2.58,0,0,1,1246.65,619.81Z" transform="translate(0 -0.423)" fill="#ff855c"/>
    <path id="Path_192" data-name="Path 192" d="M1237.13,631.768a2.564,2.564,0,0,1-1.779-.722L1211.29,608.01a2.8,2.8,0,0,1-.151-3.856,2.56,2.56,0,0,1,3.712-.157l24.065,23.037a2.8,2.8,0,0,1,.151,3.855A2.575,2.575,0,0,1,1237.13,631.768Z" transform="translate(0 -0.431)" fill="#ff855c"/>
    <path id="Path_193" data-name="Path 193" d="M1195.6,627.378l-15.97-14.4a2.2,2.2,0,0,1-.205-3.022l99.264-118.725a2.01,2.01,0,0,1,2.909-.213l15.966,14.4a2.2,2.2,0,0,1,.205,3.022l-99.264,118.725a2.01,2.01,0,0,1-2.905.213Z" transform="translate(0 -0.395)" fill="#edc9a2"/>
    <path id="Path_194" data-name="Path 194" d="M988.549,839.677a3.586,3.586,0,0,1-2.428-.952,3.922,3.922,0,0,1-.333-5.391L1276.87,489.557a3.582,3.582,0,0,1,5.19-.346,3.923,3.923,0,0,1,.333,5.391L991.312,838.38a3.611,3.611,0,0,1-2.763,1.3Z" transform="translate(0 -0.525)" fill="#d8563d"/>
    <path id="Path_195" data-name="Path 195" d="M1090.44,569.207l-10.2,12.079a2.009,2.009,0,0,1-2.91.2l-92.818-84.506a2.2,2.2,0,0,1-.191-3.022l10.2-12.079a2.009,2.009,0,0,1,2.91-.2l92.818,84.506a2.2,2.2,0,0,1,.192,3.023Z" transform="translate(0 -0.372)" fill="#fcedd8"/>
    <path id="Path_196" data-name="Path 196" d="M1079.13,584.412a2.56,2.56,0,0,1-1.708-.656L982.578,499.43a4.818,4.818,0,0,1-.369-6.763l20-22.345a3.865,3.865,0,0,1,5.5-.327l95.308,84.621a2.8,2.8,0,0,1,.289,3.847,2.559,2.559,0,0,1-3.7.3l-94.377-83.8L986.576,495.8l94.264,83.809a2.8,2.8,0,0,1,.287,3.847A2.581,2.581,0,0,1,1079.13,584.412Z" transform="translate(0 -0.368)" fill="#ff855c"/>
    <path id="Path_197" data-name="Path 197" d="M993.306,507.7a2.564,2.564,0,0,1-1.775-.718,2.8,2.8,0,0,1-.159-3.855l21.126-23.906a2.559,2.559,0,0,1,3.712-.165,2.8,2.8,0,0,1,.159,3.855l-21.126,23.906a2.577,2.577,0,0,1-1.936.884Z" transform="translate(0 -0.342)" fill="#ff855c"/>
    <path id="Path_198" data-name="Path 198" d="M1003.78,516.48a2.564,2.564,0,0,1-1.775-.718,2.8,2.8,0,0,1-.159-3.855L1022.97,488a2.558,2.558,0,0,1,3.712-.165,2.8,2.8,0,0,1,.159,3.855L1005.715,515.6A2.578,2.578,0,0,1,1003.78,516.48Z" transform="translate(0 -0.348)" fill="#ff855c"/>
    <path id="Path_199" data-name="Path 199" d="M1015.3,525.267a2.564,2.564,0,0,1-1.82-.761,2.8,2.8,0,0,1-.073-3.858l21.12-22.815a2.558,2.558,0,0,1,3.714-.076,2.8,2.8,0,0,1,.073,3.858l-21.12,22.815A2.571,2.571,0,0,1,1015.3,525.267Z" transform="translate(0 -0.355)" fill="#ff855c"/>
    <path id="Path_200" data-name="Path 200" d="M1025.76,535.141a2.572,2.572,0,0,1-1.867-.808,2.8,2.8,0,0,1,.017-3.858l22.171-22.81a2.559,2.559,0,0,1,3.716.018,2.8,2.8,0,0,1-.017,3.858l-22.171,22.81a2.571,2.571,0,0,1-1.849.79Z" transform="translate(0 -0.362)" fill="#ff855c"/>
    <path id="Path_201" data-name="Path 201" d="M1036.23,543.924a2.564,2.564,0,0,1-1.82-.761,2.8,2.8,0,0,1-.073-3.858l21.121-22.815a2.558,2.558,0,0,1,3.714-.076,2.8,2.8,0,0,1,.073,3.858l-21.125,22.814a2.571,2.571,0,0,1-1.89.838Z" transform="translate(0 -0.368)" fill="#ff855c"/>
    <path id="Path_202" data-name="Path 202" d="M1046.68,554.888a2.565,2.565,0,0,1-1.775-.718,2.8,2.8,0,0,1-.159-3.855l21.126-23.906a2.559,2.559,0,0,1,3.712-.165,2.8,2.8,0,0,1,.159,3.855L1048.616,554A2.577,2.577,0,0,1,1046.68,554.888Z" transform="translate(0 -0.376)" fill="#ff855c"/>
    <path id="Path_203" data-name="Path 203" d="M1058.2,564.768a2.564,2.564,0,0,1-1.775-.718,2.8,2.8,0,0,1-.159-3.855l21.125-23.906a2.559,2.559,0,0,1,3.712-.165,2.8,2.8,0,0,1,.159,3.855l-21.125,23.907A2.577,2.577,0,0,1,1058.2,564.768Z" transform="translate(0 -0.383)" fill="#ff855c"/>
    <path id="Path_204" data-name="Path 204" d="M1068.66,574.641a2.56,2.56,0,0,1-1.732-.678,2.8,2.8,0,0,1-.241-3.851l21.131-25a2.561,2.561,0,0,1,3.708-.25,2.8,2.8,0,0,1,.241,3.851l-21.131,25A2.58,2.58,0,0,1,1068.66,574.641Z" transform="translate(0 -0.389)" fill="#ff855c"/>
    <path id="Path_205" data-name="Path 205" d="M1079.13,584.515a2.564,2.564,0,0,1-1.779-.722,2.8,2.8,0,0,1-.151-3.855l22.183-24.992a2.56,2.56,0,0,1,3.712-.157,2.8,2.8,0,0,1,.151,3.856l-22.182,24.993A2.576,2.576,0,0,1,1079.13,584.515Z" transform="translate(0 -0.397)" fill="#ff855c"/>
    <path id="Path_206" data-name="Path 206" d="M1099.71,599.93l-13.863,16.581a2.01,2.01,0,0,1-2.91.213L968.618,513.633a2.2,2.2,0,0,1-.205-3.022l13.863-16.581a2.01,2.01,0,0,1,2.909-.213L1099.5,596.908a2.2,2.2,0,0,1,.207,3.022Z" transform="translate(0 -0.391)" fill="#edc9a2"/>
    <path id="Path_207" data-name="Path 207" d="M1178.44,757.691l10.2-12.079a2.01,2.01,0,0,1,2.91-.2l92.818,84.506a2.2,2.2,0,0,1,.191,3.023l-10.2,12.079a2.01,2.01,0,0,1-2.91.2l-92.818-84.506a2.2,2.2,0,0,1-.191-3.023Z" transform="translate(0 -0.687)" fill="#fcedd8"/>
    <path id="Path_208" data-name="Path 208" d="M1263.75,857.9a3.882,3.882,0,0,1-2.586-1l-95.308-84.622a2.8,2.8,0,0,1-.29-3.847,2.563,2.563,0,0,1,3.7-.3l94.376,83.8L1282.3,831.1l-94.26-83.808a2.8,2.8,0,0,1-.287-3.848,2.562,2.562,0,0,1,3.7-.3l94.845,84.325a4.82,4.82,0,0,1,.371,6.763l-20.006,22.344A3.9,3.9,0,0,1,1263.75,857.9Z" transform="translate(0 -0.687)" fill="#ff855c"/>
    <path id="Path_209" data-name="Path 209" d="M1254.45,848.563a2.567,2.567,0,0,1-1.776-.718,2.8,2.8,0,0,1-.159-3.855l21.126-23.906a2.56,2.56,0,0,1,3.712-.165,2.8,2.8,0,0,1,.159,3.855L1256.38,847.68a2.577,2.577,0,0,1-1.93.883Z" transform="translate(0 -0.687)" fill="#ff855c"/>
    <path id="Path_210" data-name="Path 210" d="M1243.98,839.781a2.566,2.566,0,0,1-1.775-.718,2.8,2.8,0,0,1-.159-3.855l21.125-23.906a2.559,2.559,0,0,1,3.712-.165,2.8,2.8,0,0,1,.159,3.855L1245.917,838.9A2.577,2.577,0,0,1,1243.98,839.781Z" transform="translate(0 -0.687)" fill="#ff855c"/>
    <path id="Path_211" data-name="Path 211" d="M1232.46,829.9a2.563,2.563,0,0,1-1.821-.762,2.8,2.8,0,0,1-.073-3.857l21.12-22.815a2.557,2.557,0,0,1,3.714-.076,2.8,2.8,0,0,1,.073,3.857l-21.12,22.815a2.57,2.57,0,0,1-1.893.838Z" transform="translate(0 -0.687)" fill="#ff855c"/>
    <path id="Path_212" data-name="Path 212" d="M1220.95,820.024a2.573,2.573,0,0,1-1.866-.808,2.8,2.8,0,0,1,.017-3.859l22.172-22.811a2.561,2.561,0,0,1,3.716.018,2.8,2.8,0,0,1-.017,3.859L1222.8,819.234a2.572,2.572,0,0,1-1.849.79Z" transform="translate(0 -0.565)" fill="#ff855c"/>
    <path id="Path_213" data-name="Path 213" d="M1211.53,811.246a2.563,2.563,0,0,1-1.82-.762,2.8,2.8,0,0,1-.073-3.857l21.121-22.815a2.557,2.557,0,0,1,3.714-.076,2.8,2.8,0,0,1,.073,3.857l-21.121,22.815a2.57,2.57,0,0,1-1.893.838Z" transform="translate(0 -0.559)" fill="#ff855c"/>
    <path id="Path_214" data-name="Path 214" d="M1201.07,801.373a2.565,2.565,0,0,1-1.775-.718,2.8,2.8,0,0,1-.159-3.855l21.125-23.906a2.56,2.56,0,0,1,3.712-.165,2.8,2.8,0,0,1,.159,3.855l-21.125,23.906A2.577,2.577,0,0,1,1201.07,801.373Z" transform="translate(0 -0.552)" fill="#ff855c"/>
    <path id="Path_215" data-name="Path 215" d="M1189.55,791.494a2.567,2.567,0,0,1-1.775-.718,2.8,2.8,0,0,1-.159-3.855l21.126-23.906a2.56,2.56,0,0,1,3.712-.165,2.8,2.8,0,0,1,.159,3.855L1191.49,790.61A2.578,2.578,0,0,1,1189.55,791.494Z" transform="translate(0 -0.545)" fill="#ff855c"/>
    <path id="Path_216" data-name="Path 216" d="M1179.08,782.711a2.56,2.56,0,0,1-1.732-.678,2.8,2.8,0,0,1-.241-3.851l21.131-25a2.561,2.561,0,0,1,3.708-.251,2.8,2.8,0,0,1,.241,3.851l-21.13,25a2.582,2.582,0,0,1-1.976.928Z" transform="translate(0 -0.538)" fill="#ff855c"/>
    <path id="Path_217" data-name="Path 217" d="M1167.57,772.832a2.562,2.562,0,0,1-1.779-.723,2.8,2.8,0,0,1-.151-3.855l22.182-24.992a2.558,2.558,0,0,1,3.712-.157,2.8,2.8,0,0,1,.151,3.855L1169.5,771.953a2.574,2.574,0,0,1-1.932.879Z" transform="translate(0 -0.531)" fill="#ff855c"/>
    <path id="Path_218" data-name="Path 218" d="M1169.17,726.967l13.864-16.581a2.009,2.009,0,0,1,2.909-.213L1300.26,813.263a2.2,2.2,0,0,1,.205,3.022L1286.6,832.867a2.009,2.009,0,0,1-2.909.213L1169.38,729.989a2.2,2.2,0,0,1-.21-3.022Z" transform="translate(0 -0.563)" fill="#edc9a2"/>
    <path id="Path_219" data-name="Path 219" d="M1299.45,818.06a3.586,3.586,0,0,1-2.428-.952L966.005,514.8a3.923,3.923,0,0,1-.332-5.391,3.583,3.583,0,0,1,5.191-.346l331.013,302.307a3.923,3.923,0,0,1,.333,5.391,3.612,3.612,0,0,1-2.759,1.3Z" transform="translate(0 -0.513)" fill="#d8563d"/>
    <path id="Path_220" data-name="Path 220" d="M1133.74,670.974h0a7.234,7.234,0,0,1-7.093-7.367h0a7.234,7.234,0,0,1,7.093-7.367h0a7.234,7.234,0,0,1,7.093,7.367h0A7.234,7.234,0,0,1,1133.74,670.974Z" transform="translate(0 -0.462)" fill="#ff855c"/>
    <path id="Path_221" data-name="Path 221" d="M1133.74,874.513h0c-15.089,0-27.322,12.7-27.322,28.375v46.928h54.643V902.888C1161.07,887.217,1148.83,874.513,1133.74,874.513Z" transform="translate(0 -0.687)" fill="#ff855c"/>
    <path id="Path_222" data-name="Path 222" d="M1161.59,950.362H1105.9V902.888c0-15.947,12.492-28.921,27.847-28.921s27.847,12.974,27.847,28.921Zm-54.644-1.091h53.594V902.888c0-15.345-12.021-27.83-26.8-27.83s-26.8,12.484-26.8,27.83Z" transform="translate(0 -0.687)" fill="#ff855c"/>
    <rect id="Rectangle_26" data-name="Rectangle 26" width="5.254" height="74.212" transform="translate(1131.17 874.917)" fill="#ea6b49"/>
    <ellipse id="Ellipse_17" data-name="Ellipse 17" cx="2.627" cy="2.728" rx="2.627" ry="2.728" transform="translate(1121.743 916.388)" fill="#ea6b49"/>
    <ellipse id="Ellipse_18" data-name="Ellipse 18" cx="2.627" cy="2.728" rx="2.627" ry="2.728" transform="translate(1141.183 916.934)" fill="#ea6b49"/>
    <path id="Path_223" data-name="Path 223" d="M1133.74,785.567h0c-10.114,0-18.39,8.594-18.39,19.1v20.286a3.12,3.12,0,0,0,3.06,3.178h29.7a4.1,4.1,0,0,0,4.018-4.173V804.666C1152.13,794.162,1143.86,785.567,1133.74,785.567Z" transform="translate(0 -0.569)" fill="#ff855c"/>
    <path id="Path_224" data-name="Path 224" d="M1148.12,828.676h-29.7a3.66,3.66,0,0,1-3.586-3.724V804.666c0-10.831,8.486-19.644,18.915-19.644s18.915,8.813,18.915,19.644v19.292A4.638,4.638,0,0,1,1148.12,828.676Zm-14.372-42.563c-9.851,0-17.864,8.323-17.864,18.553v20.286a2.588,2.588,0,0,0,2.535,2.633h29.7a3.566,3.566,0,0,0,3.492-3.627V804.666c0-10.231-8.022-18.553-17.872-18.553Z" transform="translate(0 -0.57)" fill="#ff855c"/>
    <path id="Path_225" data-name="Path 225" d="M1133.74,830.859a2.679,2.679,0,0,1-2.627-2.729V787.2a2.629,2.629,0,1,1,5.254,0V828.13a2.679,2.679,0,0,1-2.627,2.729Z" transform="translate(0 -0.571)" fill="#fddfbb"/>
    <path id="Path_226" data-name="Path 226" d="M1151.61,813.943h-35.73a2.73,2.73,0,0,1,0-5.457h35.728a2.73,2.73,0,0,1,0,5.457Z" transform="translate(0 -0.687)" fill="#fddfbb"/>
    <g id="Group_21" data-name="Group 21" transform="translate(1150.261 835.628)" opacity="0.64">
      <path id="Path_227" data-name="Path 227" d="M1173.68,853.668h-23.419v-9.222h23.419Zm-22.368-1.091h21.318v-7.039h-21.318Z" transform="translate(-1150.261 -836.315)" fill="#fddfbb"/>
      <path id="Path_228" data-name="Path 228" d="M1196.05,861.8h-23.418v-9.221h23.418Zm-22.367-1.091H1195v-7.038H1173.68Z" transform="translate(-1150.261 -836.315)" fill="#fddfbb"/>
      <path id="Path_229" data-name="Path 229" d="M1173.68,869.929h-23.419v-9.222h23.419Zm-22.368-1.091h21.318V861.8h-21.318Z" transform="translate(-1150.261 -836.315)" fill="#fddfbb"/>
      <path id="Path_230" data-name="Path 230" d="M1218.42,853.668H1195v-9.222h23.419Zm-22.368-1.091h21.317v-7.039H1196.05Z" transform="translate(-1150.261 -836.315)" fill="#ff855c" opacity="0.31"/>
      <path id="Path_231" data-name="Path 231" d="M1196.05,845.537h-23.418v-9.222h23.418Zm-22.37-1.091H1195v-7.039H1173.68Z" transform="translate(-1150.261 -836.315)" fill="#ff855c" opacity="0.31"/>
    </g>
    <g id="Group_22" data-name="Group 22" transform="translate(1049.381 878.191)" opacity="0.48">
      <path id="Path_232" data-name="Path 232" d="M1072.8,896.231h-23.419v-9.222H1072.8Zm-22.368-1.091h21.317V888.1h-21.317Z" transform="translate(-1049.381 -878.878)" fill="#fcedd8"/>
      <path id="Path_233" data-name="Path 233" d="M1095.17,904.361h-23.42V895.14h23.418Zm-22.37-1.091h21.317v-7.038H1072.8Z" transform="translate(-1049.381 -878.878)" fill="#fcedd8"/>
      <path id="Path_234" data-name="Path 234" d="M1072.8,912.492h-23.419V903.27H1072.8Zm-22.368-1.091h21.317v-7.039h-21.317Z" transform="translate(-1049.381 -878.878)" fill="#fcedd8"/>
      <path id="Path_235" data-name="Path 235" d="M1117.54,896.231h-23.419v-9.222h23.419Zm-22.368-1.091h21.318V888.1h-21.318Z" transform="translate(-1049.381 -878.878)" fill="#ff855c" opacity="0.31"/>
      <path id="Path_236" data-name="Path 236" d="M1095.17,888.1h-23.42v-9.222h23.418Zm-22.37-1.091h21.317v-7.04H1072.8Z" transform="translate(-1049.381 -878.878)" fill="#ff855c" opacity="0.31"/>
    </g>
    <path id="Path_237" data-name="Path 237" d="M716.24,783.271h80.107l22.888,167.091h-127.9Z" transform="translate(0 -0.687)" fill="#fddfbb"/>
    <g id="Group_23" data-name="Group 23" transform="translate(713.261 810.06)" opacity="0.67">
      <rect id="Rectangle_27" data-name="Rectangle 27" width="13.912" height="5.057" transform="translate(28.161 10.463)" fill="#fcedd8"/>
      <path id="Path_238" data-name="Path 238" d="M741.758,821.56H727.173V815.8h14.585Zm-13.912-.7h13.239V816.5H727.847Z" transform="translate(-713.261 -810.747)" fill="#fcedd8"/>
      <path id="Path_239" data-name="Path 239" d="M755.671,816.5H741.085v-5.756H755.67Zm-13.912-.7H755v-4.358h-13.24Z" transform="translate(-713.261 -810.747)" fill="#fcedd8"/>
      <path id="Path_240" data-name="Path 240" d="M727.847,826.617H713.261V820.86h14.586Zm-13.912-.7h13.239V821.56h-13.24Z" transform="translate(-713.261 -810.747)" fill="#ff855c" opacity="0.31"/>
      <path id="Path_241" data-name="Path 241" d="M741.758,831.674H727.173v-5.756h14.585Zm-13.912-.7h13.239v-4.358H727.847Z" transform="translate(-713.261 -810.747)" fill="#ff855c" opacity="0.31"/>
    </g>
    <path id="Path_242" data-name="Path 242" d="M753.637,783.271h42.71l22.888,167.091H757Z" transform="translate(0 -0.687)" fill="#fcedd8"/>
    <path id="Path_243" data-name="Path 243" d="M795.246,806.692h-80.1c-6.356,0-11.085-6.1-9.729-12.549l9.262-44.044a10.346,10.346,0,0,1,4.417-6.541l31.774-20.813a9.645,9.645,0,0,1,10.546-.051l34.205,21.946a10.386,10.386,0,0,1,4.656,7.59l4.861,42.911a10.208,10.208,0,0,1-9.89,11.551Z" transform="translate(0 -0.548)" fill="#ea6b49"/>
    <path id="Path_244" data-name="Path 244" d="M788.092,792.359H722.3c-5.22,0-9.1-4.362-7.991-8.974l7.607-31.5a7.454,7.454,0,0,1,3.628-4.678l26.1-14.883a8.921,8.921,0,0,1,8.662-.036l28.1,15.694a7.37,7.37,0,0,1,3.825,5.428l3.993,30.688C796.787,788.5,792.988,792.359,788.092,792.359Z" transform="translate(0 -0.541)" fill="#ff855c" opacity="0.79"/>
    <path id="Path_245" data-name="Path 245" d="M755.284,777.678h0a10.984,10.984,0,0,1-10.771-11.186h0a10.984,10.984,0,0,1,10.771-11.186h0a10.984,10.984,0,0,1,10.771,11.186h0a10.984,10.984,0,0,1-10.771,11.186Z" transform="translate(0 -0.536)" fill="#f7d7b5"/>
    <path id="Path_246" data-name="Path 246" d="M755.284,780.125a13.643,13.643,0,1,1,13.127-13.633,13.4,13.4,0,0,1-13.127,13.633Zm0-22.372a8.745,8.745,0,1,0,8.414,8.739,8.591,8.591,0,0,0-8.414-8.739Z" transform="translate(0 -0.537)" fill="#f7d7b5"/>
    <path id="Path_247" data-name="Path 247" d="M697.6,795.838l7.45,6.783a1.409,1.409,0,0,1,.123,1.936L653.047,866.31a1.287,1.287,0,0,1-1.865.127l-7.45-6.783a1.409,1.409,0,0,1-.122-1.936l52.125-61.752a1.287,1.287,0,0,1,1.864-.128Z" transform="translate(0 -0.687)" fill="#fcedd8"/>
    <path id="Path_248" data-name="Path 248" d="M652.362,868.651a2.853,2.853,0,0,1-1.974-.8l-13.783-13.31a2.714,2.714,0,0,1-.2-3.659l52.2-63.409a1.641,1.641,0,0,1,2.373-.193,1.8,1.8,0,0,1,.185,2.465l-51.687,62.79,12.851,12.41,51.694-62.715a1.642,1.642,0,0,1,2.373-.191,1.8,1.8,0,0,1,.184,2.465L654.56,867.6a2.875,2.875,0,0,1-2.036,1.047C652.47,868.649,652.416,868.651,652.362,868.651Z" transform="translate(0 -0.687)" fill="#ff855c"/>
    <path id="Path_249" data-name="Path 249" d="M657.975,862.209a1.643,1.643,0,0,1-1.137-.46l-14.746-14.055a1.8,1.8,0,0,1-.1-2.469,1.639,1.639,0,0,1,2.378-.106l14.746,14.055a1.8,1.8,0,0,1,.1,2.469,1.651,1.651,0,0,1-1.24.566Z" transform="translate(0 -0.687)" fill="#ff855c"/>
    <path id="Path_250" data-name="Path 250" d="M663.393,855.244a1.644,1.644,0,0,1-1.137-.46L647.51,840.729a1.8,1.8,0,0,1-.1-2.47,1.64,1.64,0,0,1,2.378-.106l14.746,14.055a1.8,1.8,0,0,1,.1,2.47A1.65,1.65,0,0,1,663.393,855.244Z" transform="translate(0 -0.687)" fill="#ff855c"/>
    <path id="Path_251" data-name="Path 251" d="M668.814,847.58a1.641,1.641,0,0,1-1.166-.488L653.575,833.04a1.8,1.8,0,0,1-.047-2.471,1.638,1.638,0,0,1,2.379-.048l14.073,14.052a1.8,1.8,0,0,1,.047,2.471,1.647,1.647,0,0,1-1.213.536Z" transform="translate(0 -0.687)" fill="#ff855c"/>
    <path id="Path_252" data-name="Path 252" d="M674.9,840.619a1.649,1.649,0,0,1-1.2-.518l-14.07-14.751a1.8,1.8,0,0,1,.011-2.472,1.641,1.641,0,0,1,2.38.012l14.07,14.751a1.8,1.8,0,0,1-.011,2.472A1.649,1.649,0,0,1,674.9,840.619Z" transform="translate(0 -0.687)" fill="#ff855c"/>
    <path id="Path_253" data-name="Path 253" d="M680.321,833.654a1.641,1.641,0,0,1-1.166-.488l-14.073-14.052a1.8,1.8,0,0,1-.047-2.471,1.637,1.637,0,0,1,2.379-.048l14.073,14.052a1.8,1.8,0,0,1,.047,2.471,1.646,1.646,0,0,1-1.213.536Z" transform="translate(0 -0.687)" fill="#ff855c"/>
    <path id="Path_254" data-name="Path 254" d="M687.084,826.7a1.644,1.644,0,0,1-1.137-.46L671.2,812.181a1.8,1.8,0,0,1-.1-2.469,1.64,1.64,0,0,1,2.378-.106l14.746,14.055a1.8,1.8,0,0,1,.1,2.47,1.651,1.651,0,0,1-1.24.565Z" transform="translate(0 -0.687)" fill="#ff855c"/>
    <path id="Path_255" data-name="Path 255" d="M693.177,819.035a1.644,1.644,0,0,1-1.137-.46L677.294,804.52a1.8,1.8,0,0,1-.1-2.47,1.64,1.64,0,0,1,2.378-.106L694.316,816a1.8,1.8,0,0,1,.1,2.469A1.651,1.651,0,0,1,693.177,819.035Z" transform="translate(0 -0.687)" fill="#ff855c"/>
    <path id="Path_256" data-name="Path 256" d="M699.267,812.074a1.64,1.64,0,0,1-1.11-.434l-15.419-14.059a1.8,1.8,0,0,1-.154-2.467,1.64,1.64,0,0,1,2.375-.16l15.419,14.059a1.8,1.8,0,0,1,.154,2.467,1.654,1.654,0,0,1-1.265.594Z" transform="translate(0 -0.687)" fill="#ff855c"/>
    <path id="Path_257" data-name="Path 257" d="M705.358,805.112a1.641,1.641,0,0,1-1.14-.463L688.8,789.892a1.8,1.8,0,0,1-.1-2.469,1.638,1.638,0,0,1,2.378-.1L706.5,802.08a1.794,1.794,0,0,1,.1,2.469,1.648,1.648,0,0,1-1.238.563Z" transform="translate(0 -0.556)" fill="#ff855c"/>
    <path id="Path_258" data-name="Path 258" d="M716.55,789.672l10.228,9.224a1.409,1.409,0,0,1,.131,1.936l-63.589,76.056a1.287,1.287,0,0,1-1.864.136L651.229,867.8a1.409,1.409,0,0,1-.131-1.936l63.589-76.056a1.287,1.287,0,0,1,1.864-.137Z" transform="translate(0 -0.687)" fill="#edc9a2"/>
    <path id="Path_259" data-name="Path 259" d="M813.859,737.291l-7.45-6.783a1.41,1.41,0,0,1-.123-1.936l52.125-61.751a1.287,1.287,0,0,1,1.864-.127l7.451,6.783a1.409,1.409,0,0,1,.122,1.936l-52.125,61.752a1.287,1.287,0,0,1-1.865.127Z" transform="translate(0 -0.498)" fill="#fcedd8"/>
    <path id="Path_260" data-name="Path 260" d="M821.579,746.273a1.64,1.64,0,0,1-1.093-.419,1.8,1.8,0,0,1-.186-2.464l51.688-62.79-12.851-12.41L807.442,730.9a1.639,1.639,0,0,1-2.373.191,1.8,1.8,0,0,1-.184-2.464l52.013-63.1a2.873,2.873,0,0,1,2.035-1.047,2.827,2.827,0,0,1,2.136.8l13.783,13.311a2.714,2.714,0,0,1,.2,3.658l-52.2,63.409a1.653,1.653,0,0,1-1.28.612Z" transform="translate(0 -0.502)" fill="#ff855c"/>
    <path id="Path_261" data-name="Path 261" d="M868.227,688.471a1.643,1.643,0,0,1-1.137-.46l-14.746-14.055a1.8,1.8,0,0,1-.1-2.469,1.64,1.64,0,0,1,2.378-.106l14.746,14.055a1.8,1.8,0,0,1,.1,2.469,1.651,1.651,0,0,1-1.24.566Z" transform="translate(0 -0.474)" fill="#ff855c"/>
    <path id="Path_262" data-name="Path 262" d="M862.81,695.436a1.642,1.642,0,0,1-1.137-.46l-14.746-14.055a1.8,1.8,0,0,1-.1-2.469,1.639,1.639,0,0,1,2.378-.106L863.949,692.4a1.8,1.8,0,0,1,.1,2.47A1.651,1.651,0,0,1,862.81,695.436Z" transform="translate(0 -0.479)" fill="#ff855c"/>
    <path id="Path_263" data-name="Path 263" d="M856.718,703.1a1.643,1.643,0,0,1-1.166-.488l-14.073-14.052a1.8,1.8,0,0,1-.047-2.472,1.639,1.639,0,0,1,2.379-.048l14.073,14.052a1.8,1.8,0,0,1,.047,2.471,1.646,1.646,0,0,1-1.213.536Z" transform="translate(0 -0.484)" fill="#ff855c"/>
    <path id="Path_264" data-name="Path 264" d="M850.624,710.757a1.647,1.647,0,0,1-1.2-.518l-14.069-14.751a1.8,1.8,0,0,1,.011-2.471,1.639,1.639,0,0,1,2.38.012l14.069,14.75a1.8,1.8,0,0,1-.011,2.471,1.646,1.646,0,0,1-1.185.507Z" transform="translate(0 -0.489)" fill="#ff855c"/>
    <path id="Path_265" data-name="Path 265" d="M845.21,717.023a1.642,1.642,0,0,1-1.166-.488l-14.073-14.052a1.8,1.8,0,0,1-.047-2.472,1.639,1.639,0,0,1,2.379-.048l14.073,14.052a1.8,1.8,0,0,1,.047,2.472,1.647,1.647,0,0,1-1.213.537Z" transform="translate(0 -0.494)" fill="#ff855c"/>
    <path id="Path_266" data-name="Path 266" d="M839.119,723.984a1.642,1.642,0,0,1-1.137-.46l-14.746-14.055a1.8,1.8,0,0,1-.1-2.469,1.639,1.639,0,0,1,2.378-.106l14.746,14.055a1.8,1.8,0,0,1,.1,2.47A1.651,1.651,0,0,1,839.119,723.984Z" transform="translate(0 -0.499)" fill="#ff855c"/>
    <path id="Path_267" data-name="Path 267" d="M833.026,731.645a1.645,1.645,0,0,1-1.137-.46L817.143,717.13a1.8,1.8,0,0,1-.1-2.469,1.64,1.64,0,0,1,2.378-.106l14.746,14.055a1.8,1.8,0,0,1,.1,2.469,1.651,1.651,0,0,1-1.24.566Z" transform="translate(0 -0.504)" fill="#ff855c"/>
    <path id="Path_268" data-name="Path 268" d="M827.608,738.609a1.642,1.642,0,0,1-1.11-.434L811.08,724.117a1.8,1.8,0,0,1-.155-2.467,1.641,1.641,0,0,1,2.375-.16l15.419,14.058a1.8,1.8,0,0,1,.154,2.467,1.653,1.653,0,0,1-1.266.593Z" transform="translate(0 -0.509)" fill="#ff855c"/>
    <path id="Path_269" data-name="Path 269" d="M821.515,746.27a1.644,1.644,0,0,1-1.14-.462L804.959,731.05a1.8,1.8,0,0,1-.1-2.47,1.64,1.64,0,0,1,2.378-.1l15.416,14.758a1.8,1.8,0,0,1,.1,2.47,1.65,1.65,0,0,1-1.238.563Z" transform="translate(0 -0.515)" fill="#ff855c"/>
    <path id="Path_270" data-name="Path 270" d="M794.909,743.457l-10.228-9.223a1.409,1.409,0,0,1-.131-1.936l63.589-76.056a1.287,1.287,0,0,1,1.864-.136l10.228,9.223a1.409,1.409,0,0,1,.131,1.936l-63.588,76.056a1.288,1.288,0,0,1-1.864.136Z" transform="translate(0 -0.499)" fill="#edc9a2"/>
    <path id="Path_271" data-name="Path 271" d="M662.271,879.457a2.3,2.3,0,0,1-1.555-.61,2.513,2.513,0,0,1-.213-3.453L846.971,655.169a2.294,2.294,0,0,1,3.325-.222,2.513,2.513,0,0,1,.213,3.453L664.041,878.626a2.314,2.314,0,0,1-1.77.831Z" transform="translate(0 -0.687)" fill="#d8563d"/>
    <path id="Path_272" data-name="Path 272" d="M727.543,706.193l-6.531,7.738a1.287,1.287,0,0,1-1.864.127l-59.459-54.135a1.409,1.409,0,0,1-.123-1.936l6.531-7.738a1.287,1.287,0,0,1,1.864-.127l59.459,54.135A1.409,1.409,0,0,1,727.543,706.193Z" transform="translate(0 -0.482)" fill="#fcedd8"/>
    <path id="Path_273" data-name="Path 273" d="M720.3,715.933a1.64,1.64,0,0,1-1.094-.42l-60.758-54.019a3.087,3.087,0,0,1-.237-4.333l12.815-14.314a2.476,2.476,0,0,1,3.523-.21L735.6,696.846a1.8,1.8,0,0,1,.185,2.464,1.639,1.639,0,0,1-2.373.193l-60.458-53.68-11.949,13.346,60.386,53.688a1.8,1.8,0,0,1,.184,2.464A1.654,1.654,0,0,1,720.3,715.933Z" transform="translate(0 -0.481)" fill="#ff855c"/>
    <path id="Path_274" data-name="Path 274" d="M665.318,666.79a1.643,1.643,0,0,1-1.137-.46,1.8,1.8,0,0,1-.1-2.469l13.534-15.314a1.639,1.639,0,0,1,2.378-.106,1.8,1.8,0,0,1,.1,2.47l-13.534,15.314A1.651,1.651,0,0,1,665.318,666.79Z" transform="translate(0 -0.458)" fill="#ff855c"/>
    <path id="Path_275" data-name="Path 275" d="M672.025,672.416a1.642,1.642,0,0,1-1.137-.46,1.8,1.8,0,0,1-.1-2.47l13.533-15.314a1.638,1.638,0,0,1,2.378-.106,1.8,1.8,0,0,1,.1,2.469L673.266,671.85a1.651,1.651,0,0,1-1.241.566Z" transform="translate(0 -0.462)" fill="#ff855c"/>
    <path id="Path_276" data-name="Path 276" d="M679.405,678.045a1.643,1.643,0,0,1-1.166-.488,1.8,1.8,0,0,1-.047-2.471l13.53-14.615a1.639,1.639,0,0,1,2.379-.048,1.8,1.8,0,0,1,.047,2.471l-13.53,14.615A1.648,1.648,0,0,1,679.405,678.045Z" transform="translate(0 -0.466)" fill="#ff855c"/>
    <path id="Path_277" data-name="Path 277" d="M686.108,684.37a1.648,1.648,0,0,1-1.2-.518,1.8,1.8,0,0,1,.011-2.472l14.2-14.612a1.639,1.639,0,0,1,2.38.012,1.8,1.8,0,0,1-.011,2.471l-14.2,14.612A1.647,1.647,0,0,1,686.108,684.37Z" transform="translate(0 -0.471)" fill="#ff855c"/>
    <path id="Path_278" data-name="Path 278" d="M692.814,690a1.643,1.643,0,0,1-1.166-.488,1.8,1.8,0,0,1-.047-2.472l13.53-14.615a1.639,1.639,0,0,1,2.379-.048,1.8,1.8,0,0,1,.047,2.471l-13.53,14.615a1.647,1.647,0,0,1-1.213.536Z" transform="translate(0 -0.475)" fill="#ff855c"/>
    <path id="Path_279" data-name="Path 279" d="M699.513,697.02a1.643,1.643,0,0,1-1.137-.46,1.8,1.8,0,0,1-.1-2.47l13.533-15.314a1.639,1.639,0,0,1,2.378-.106,1.8,1.8,0,0,1,.1,2.469l-13.533,15.314a1.651,1.651,0,0,1-1.241.566Z" transform="translate(0 -0.48)" fill="#ff855c"/>
    <path id="Path_280" data-name="Path 280" d="M706.889,703.349a1.642,1.642,0,0,1-1.137-.46,1.8,1.8,0,0,1-.1-2.47L719.183,685.1a1.639,1.639,0,0,1,2.378-.106,1.8,1.8,0,0,1,.1,2.469L708.13,702.783A1.651,1.651,0,0,1,706.889,703.349Z" transform="translate(0 -0.484)" fill="#ff855c"/>
    <path id="Path_281" data-name="Path 281" d="M713.592,709.674a1.641,1.641,0,0,1-1.11-.434,1.8,1.8,0,0,1-.154-2.467l13.536-16.013a1.641,1.641,0,0,1,2.375-.16,1.8,1.8,0,0,1,.155,2.467L714.857,709.08A1.653,1.653,0,0,1,713.592,709.674Z" transform="translate(0 -0.488)" fill="#ff855c"/>
    <path id="Path_282" data-name="Path 282" d="M720.295,716a1.643,1.643,0,0,1-1.14-.463,1.8,1.8,0,0,1-.1-2.47l14.21-16.01a1.64,1.64,0,0,1,2.378-.1,1.8,1.8,0,0,1,.1,2.47l-14.21,16.01a1.65,1.65,0,0,1-1.238.563Z" transform="translate(0 -0.493)" fill="#ff855c"/>
    <path id="Path_283" data-name="Path 283" d="M733.48,725.874,724.6,736.5a1.287,1.287,0,0,1-1.864.136L649.5,670.592a1.409,1.409,0,0,1-.131-1.936l8.881-10.622a1.287,1.287,0,0,1,1.864-.136l73.232,66.041a1.409,1.409,0,0,1,.131,1.936Z" transform="translate(0 -0.496)" fill="#edc9a2"/>
    <path id="Path_284" data-name="Path 284" d="M783.916,826.936l6.531-7.738a1.288,1.288,0,0,1,1.864-.127l59.459,54.135a1.409,1.409,0,0,1,.123,1.936l-6.531,7.738a1.287,1.287,0,0,1-1.864.127l-59.459-54.135a1.409,1.409,0,0,1-.123-1.936Z" transform="translate(0 -0.687)" fill="#fcedd8"/>
    <path id="Path_285" data-name="Path 285" d="M838.568,891.13a2.486,2.486,0,0,1-1.657-.638l-61.055-54.209a1.8,1.8,0,0,1-.185-2.465,1.642,1.642,0,0,1,2.373-.193l60.458,53.68,11.949-13.346-60.386-53.688a1.8,1.8,0,0,1-.184-2.465,1.641,1.641,0,0,1,2.373-.191l60.758,54.019a3.088,3.088,0,0,1,.237,4.333l-12.816,14.314a2.5,2.5,0,0,1-1.866.848Z" transform="translate(0 -0.687)" fill="#ff855c"/>
    <path id="Path_286" data-name="Path 286" d="M832.6,885.149a1.644,1.644,0,0,1-1.137-.46,1.8,1.8,0,0,1-.1-2.47L844.9,866.9a1.64,1.64,0,0,1,2.378-.106,1.8,1.8,0,0,1,.1,2.469l-13.533,15.314a1.652,1.652,0,0,1-1.24.566Z" transform="translate(0 -0.687)" fill="#ff855c"/>
    <path id="Path_287" data-name="Path 287" d="M825.9,879.524a1.643,1.643,0,0,1-1.137-.46,1.8,1.8,0,0,1-.1-2.47l13.533-15.314a1.64,1.64,0,0,1,2.378-.106,1.8,1.8,0,0,1,.1,2.47L827.14,878.958a1.651,1.651,0,0,1-1.241.566Z" transform="translate(0 -0.687)" fill="#ff855c"/>
    <path id="Path_288" data-name="Path 288" d="M818.524,873.2a1.642,1.642,0,0,1-1.166-.488,1.8,1.8,0,0,1-.047-2.471l13.53-14.615a1.638,1.638,0,0,1,2.379-.049,1.8,1.8,0,0,1,.047,2.471l-13.53,14.615A1.646,1.646,0,0,1,818.524,873.2Z" transform="translate(0 -0.687)" fill="#ff855c"/>
    <path id="Path_289" data-name="Path 289" d="M811.147,866.867a1.648,1.648,0,0,1-1.2-.518,1.8,1.8,0,0,1,.011-2.472l14.2-14.613a1.64,1.64,0,0,1,2.38.012,1.8,1.8,0,0,1-.011,2.472l-14.2,14.613a1.647,1.647,0,0,1-1.185.506Z" transform="translate(0 -0.687)" fill="#ff855c"/>
    <path id="Path_290" data-name="Path 290" d="M805.114,861.244a1.641,1.641,0,0,1-1.166-.488,1.8,1.8,0,0,1-.047-2.471l13.53-14.615a1.638,1.638,0,0,1,2.379-.049,1.8,1.8,0,0,1,.047,2.471l-13.53,14.615A1.646,1.646,0,0,1,805.114,861.244Z" transform="translate(0 -0.687)" fill="#ff855c"/>
    <path id="Path_291" data-name="Path 291" d="M798.411,854.919a1.643,1.643,0,0,1-1.137-.46,1.8,1.8,0,0,1-.1-2.47L810.7,836.674a1.64,1.64,0,0,1,2.378-.106,1.8,1.8,0,0,1,.1,2.47l-13.533,15.314A1.651,1.651,0,0,1,798.411,854.919Z" transform="translate(0 -0.687)" fill="#ff855c"/>
    <path id="Path_292" data-name="Path 292" d="M791.035,848.591a1.644,1.644,0,0,1-1.137-.46,1.8,1.8,0,0,1-.1-2.47l13.533-15.315a1.64,1.64,0,0,1,2.378-.106,1.8,1.8,0,0,1,.1,2.469l-13.533,15.315a1.651,1.651,0,0,1-1.241.566Z" transform="translate(0 -0.687)" fill="#ff855c"/>
    <path id="Path_293" data-name="Path 293" d="M784.329,842.964a1.639,1.639,0,0,1-1.11-.434,1.8,1.8,0,0,1-.154-2.467L796.6,824.05a1.641,1.641,0,0,1,2.375-.161,1.8,1.8,0,0,1,.154,2.467L785.594,842.37a1.654,1.654,0,0,1-1.265.594Z" transform="translate(0 -0.687)" fill="#ff855c"/>
    <path id="Path_294" data-name="Path 294" d="M776.953,836.636a1.641,1.641,0,0,1-1.14-.463,1.794,1.794,0,0,1-.1-2.47l14.21-16.01a1.638,1.638,0,0,1,2.378-.1,1.8,1.8,0,0,1,.1,2.47l-14.21,16.01A1.648,1.648,0,0,1,776.953,836.636Z" transform="translate(0 -0.687)" fill="#ff855c"/>
    <path id="Path_295" data-name="Path 295" d="M777.979,807.255l8.881-10.622a1.287,1.287,0,0,1,1.864-.136l73.232,66.041a1.409,1.409,0,0,1,.131,1.936l-8.881,10.622a1.287,1.287,0,0,1-1.864.136L778.11,809.19a1.409,1.409,0,0,1-.131-1.935Z" transform="translate(0 -0.687)" fill="#edc9a2"/>
    <path id="Path_296" data-name="Path 296" d="M861.432,865.609a2.3,2.3,0,0,1-1.555-.61L647.829,671.341a2.513,2.513,0,0,1-.213-3.453,2.295,2.295,0,0,1,3.325-.222L862.989,861.324a2.513,2.513,0,0,1,.213,3.453A2.313,2.313,0,0,1,861.432,865.609Z" transform="translate(0 -0.687)" fill="#d8563d"/>
    <path id="Path_297" data-name="Path 297" d="M755.284,771.385h0a4.634,4.634,0,0,1-4.544-4.719h0a4.634,4.634,0,0,1,4.544-4.719h0a4.634,4.634,0,0,1,4.544,4.719h0a4.634,4.634,0,0,1-4.544,4.719Z" transform="translate(0 -0.534)" fill="#ff855c"/>
    <path id="Path_298" data-name="Path 298" d="M755.284,901.773h0c-9.666,0-17.5,8.138-17.5,18.177v30.062h35V919.95C772.786,909.911,764.95,901.773,755.284,901.773Z" transform="translate(0 -0.687)" fill="#ff855c"/>
    <path id="Path_299" data-name="Path 299" d="M773.123,950.362H737.445V919.95c0-10.216,8-18.527,17.839-18.527s17.839,8.311,17.839,18.527Zm-35-.7H772.45V919.95c0-9.83-7.7-17.828-17.166-17.828s-17.166,8-17.166,17.828Z" transform="translate(0 -0.687)" fill="#ff855c"/>
    <rect id="Rectangle_28" data-name="Rectangle 28" width="3.366" height="47.541" transform="translate(753.638 901.785)" fill="#ea6b49"/>
    <ellipse id="Ellipse_19" data-name="Ellipse 19" cx="1.683" cy="1.748" rx="1.683" ry="1.748" transform="translate(747.593 928.351)" fill="#ea6b49"/>
    <ellipse id="Ellipse_20" data-name="Ellipse 20" cx="1.683" cy="1.748" rx="1.683" ry="1.748" transform="translate(760.046 928.701)" fill="#ea6b49"/>
    <path id="Path_300" data-name="Path 300" d="M755.284,844.794h0a12.05,12.05,0,0,0-11.78,12.235v13a2,2,0,0,0,1.96,2.036H764.49a2.625,2.625,0,0,0,2.574-2.673V857.029a12.05,12.05,0,0,0-11.78-12.235Z" transform="translate(0 -0.687)" fill="#ff855c"/>
    <path id="Path_301" data-name="Path 301" d="M764.49,872.41H745.464a2.345,2.345,0,0,1-2.3-2.386v-13a12.126,12.126,0,1,1,24.234,0v12.358a2.972,2.972,0,0,1-2.911,3.023Zm-9.207-27.266a11.684,11.684,0,0,0-11.444,11.885v13a1.658,1.658,0,0,0,1.624,1.686H764.49a2.284,2.284,0,0,0,2.237-2.323V857.029a11.684,11.684,0,0,0-11.443-11.885Z" transform="translate(0 -0.687)" fill="#ff855c"/>
    <path id="Path_302" data-name="Path 302" d="M755.284,873.808a1.716,1.716,0,0,1-1.683-1.748V845.843a1.684,1.684,0,1,1,3.366,0V872.06A1.716,1.716,0,0,1,755.284,873.808Z" transform="translate(0 -0.687)" fill="#fddfbb"/>
    <path id="Path_303" data-name="Path 303" d="M766.727,862.971H743.84a1.749,1.749,0,0,1,0-3.5h22.888a1.749,1.749,0,0,1,0,3.5Z" transform="translate(0 -0.687)" fill="#fddfbb"/>
    <g id="Group_24" data-name="Group 24" transform="translate(765.864 876.616)" opacity="0.64">
      <path id="Path_304" data-name="Path 304" d="M780.867,888.42h-15v-5.908h15Zm-14.329-.7h13.656v-4.51H766.537Z" transform="translate(-765.864 -877.303)" fill="#fddfbb"/>
      <path id="Path_305" data-name="Path 305" d="M795.2,893.628h-15v-5.907h15Zm-14.328-.7h13.655V888.42H780.867Z" transform="translate(-765.864 -877.303)" fill="#fddfbb"/>
      <path id="Path_306" data-name="Path 306" d="M780.867,898.836h-15v-5.908h15Zm-14.329-.7h13.656v-4.51H766.537Z" transform="translate(-765.864 -877.303)" fill="#fddfbb"/>
      <path id="Path_307" data-name="Path 307" d="M809.524,888.42h-15v-5.908h15Zm-14.329-.7h13.656v-4.51H795.2Z" transform="translate(-765.864 -877.303)" fill="#ff855c" opacity="0.31"/>
      <path id="Path_308" data-name="Path 308" d="M795.2,883.211h-15V877.3h15Zm-14.328-.7h13.655V878H780.867Z" transform="translate(-765.864 -877.303)" fill="#ff855c" opacity="0.31"/>
    </g>
    <g id="Group_25" data-name="Group 25" transform="translate(701.24 903.882)" opacity="0.48">
      <path id="Path_309" data-name="Path 309" d="M716.242,915.686h-15v-5.908h15Zm-14.329-.7h13.656v-4.51H701.913Z" transform="translate(-701.24 -904.569)" fill="#fcedd8"/>
      <path id="Path_310" data-name="Path 310" d="M730.571,920.894h-15v-5.907h15Zm-14.328-.7H729.9v-4.509H716.242Z" transform="translate(-701.24 -904.569)" fill="#fcedd8"/>
      <path id="Path_311" data-name="Path 311" d="M716.242,926.1h-15v-5.908h15Zm-14.329-.7h13.656v-4.51H701.913Z" transform="translate(-701.24 -904.569)" fill="#fcedd8"/>
      <path id="Path_312" data-name="Path 312" d="M744.9,915.686h-15v-5.908h15Zm-14.329-.7h13.656v-4.51H730.571Z" transform="translate(-701.24 -904.569)" fill="#ff855c" opacity="0.31"/>
      <path id="Path_313" data-name="Path 313" d="M730.571,910.477h-15v-5.908h15Zm-14.328-.7H729.9v-4.51H716.242Z" transform="translate(-701.24 -904.569)" fill="#ff855c" opacity="0.31"/>
    </g>
  </g>
</svg>
