<svg xmlns="http://www.w3.org/2000/svg" width="295.207" height="305.003" viewBox="0 0 295.207 305.003">
  <g id="thinking_Question" data-name="thinking Question" transform="translate(0 -0.01)">
    <g id="Background_Complete" data-name="Background Complete" transform="translate(0 10.411)">
      <path id="Path_965" data-name="Path 965" d="M313.149,145.178a1.307,1.307,0,0,0-1.129.813l-2.444,6.023a1.3,1.3,0,0,0,1.065,1.788,4.053,4.053,0,0,1,2.765,1.649,3.65,3.65,0,0,1,.735,2.8,3.736,3.736,0,0,1-1.683,2.382,4.168,4.168,0,0,1-3.154.638,4.891,4.891,0,0,1-3.494-4.987,1.305,1.305,0,0,0-2.6-.2,7.52,7.52,0,0,0,5.508,7.732,6.734,6.734,0,0,0,5.176-1,6.353,6.353,0,0,0,2.818-4.095,6.264,6.264,0,0,0-1.209-4.829,6.83,6.83,0,0,0-2.946-2.278l1.885-4.642a1.306,1.306,0,0,0-1.29-1.794Z" transform="translate(-116.557 -76.277)" fill="#e0e0e0"/>
      <path id="Path_966" data-name="Path 966" d="M320.942,141.71a1.068,1.068,0,1,0-1.406.552A1.068,1.068,0,0,0,320.942,141.71Z" transform="translate(-121.658 -74.666)" fill="#e0e0e0"/>
      <path id="Path_967" data-name="Path 967" d="M237,57.945a1.3,1.3,0,0,0-.2-1.367l-4.2-4.905a1.3,1.3,0,0,0-2.063.123,4.026,4.026,0,0,1-2.717,1.687,3.626,3.626,0,0,1-2.806-.63,3.711,3.711,0,0,1-1.333-2.572,4.139,4.139,0,0,1,.877-3.073,4.858,4.858,0,0,1,5.994-.805,1.3,1.3,0,0,0,1.366-2.2,7.469,7.469,0,0,0-9.334,1.329,6.689,6.689,0,0,0-1.481,5.022,6.31,6.31,0,0,0,2.325,4.355,6.221,6.221,0,0,0,4.811,1.138,6.783,6.783,0,0,0,3.354-1.559l3.234,3.782A1.3,1.3,0,0,0,237,57.945Z" transform="translate(-89.878 -43.129)" fill="#e0e0e0"/>
      <path id="Path_968" data-name="Path 968" d="M245.163,69.015a1.061,1.061,0,1,0,.155-1.492A1.061,1.061,0,0,0,245.163,69.015Z" transform="translate(-97.63 -50.976)" fill="#e0e0e0"/>
      <rect id="Rectangle_461" data-name="Rectangle 461" width="4.798" height="23.875" transform="translate(57.741 22.233) rotate(-0.307)" fill="#e0e0e0"/>
      <rect id="Rectangle_462" data-name="Rectangle 462" width="12.425" height="13.181" transform="matrix(1, -0.005, 0.005, 1, 16.173, 22.336)" fill="#ebebeb"/>
      <rect id="Rectangle_463" data-name="Rectangle 463" width="12.425" height="13.181" transform="matrix(1, -0.005, 0.005, 1, 28.54, 22.27)" fill="#f5f5f5"/>
      <path id="Path_969" data-name="Path 969" d="M50.694,81.412q12.386.1,24.792-.114a.132.132,0,0,0,0-.264c-8.257-.046-16.535-.005-24.791.152a.113.113,0,0,0,0,.226Z" transform="translate(-34.502 -55.436)" fill="#e0e0e0"/>
      <rect id="Rectangle_464" data-name="Rectangle 464" width="22.575" height="10.741" transform="translate(8.427 35.351) rotate(-0.307)" fill="#ebebeb"/>
      <rect id="Rectangle_465" data-name="Rectangle 465" width="22.575" height="10.741" transform="translate(30.894 35.231) rotate(-0.307)" fill="#f5f5f5"/>
      <path id="Path_970" data-name="Path 970" d="M39.215,99.659c15,.17,30.046.017,45.042-.222a.132.132,0,0,0,0-.264c-15-.079-30.048-.07-45.042.26a.113.113,0,0,0,0,.226Z" transform="translate(-30.773 -61.32)" fill="#e0e0e0"/>
      <rect id="Rectangle_466" data-name="Rectangle 466" width="87.461" height="3.848" transform="translate(0 46.092)" fill="#e0e0e0"/>
      <rect id="Rectangle_467" data-name="Rectangle 467" width="3.55" height="13.13" transform="translate(14.319 47.943)" fill="#e0e0e0"/>
      <rect id="Rectangle_468" data-name="Rectangle 468" width="3.551" height="13.13" transform="translate(67.32 47.943)" fill="#e0e0e0"/>
      <rect id="Rectangle_469" data-name="Rectangle 469" width="4.798" height="32.837" transform="translate(62.423 13.33) rotate(-0.307)" fill="#ebebeb"/>
      <rect id="Rectangle_470" data-name="Rectangle 470" width="7.456" height="26.611" transform="matrix(1, -0.005, 0.005, 1, 67.262, 19.457)" fill="#f5f5f5"/>
      <path id="Path_971" data-name="Path 971" d="M133.768,79.411a27,27,0,0,1-3.728.129,27,27,0,0,1-3.728-.129,27.016,27.016,0,0,1,3.728-.129A27.017,27.017,0,0,1,133.768,79.411Z" transform="translate(-59.1 -54.867)" fill="#e0e0e0"/>
      <path id="Path_972" data-name="Path 972" d="M133.768,77.755a27.014,27.014,0,0,1-3.728.129,27.017,27.017,0,0,1-3.728-.129,27,27,0,0,1,3.728-.129A27.006,27.006,0,0,1,133.768,77.755Z" transform="translate(-59.1 -54.329)" fill="#e0e0e0"/>
      <path id="Path_973" data-name="Path 973" d="M133.768,105.3a27,27,0,0,1-3.728.129,27,27,0,0,1-3.728-.129,27.016,27.016,0,0,1,3.728-.129A27.014,27.014,0,0,1,133.768,105.3Z" transform="translate(-59.1 -63.277)" fill="#e0e0e0"/>
      <path id="Path_974" data-name="Path 974" d="M133.768,103.645a27.006,27.006,0,0,1-3.728.129,27,27,0,0,1-3.728-.129,27.015,27.015,0,0,1,3.728-.129A27.015,27.015,0,0,1,133.768,103.645Z" transform="translate(-59.101 -62.739)" fill="#e0e0e0"/>
      <path id="Path_975" data-name="Path 975" d="M131.95,94.333c-.071,0-.129-2.685-.129-6s.058-6,.129-6,.129,2.684.129,6S132.021,94.333,131.95,94.333Z" transform="translate(-60.89 -55.866)" fill="#e0e0e0"/>
      <rect id="Rectangle_471" data-name="Rectangle 471" width="8.115" height="20.085" transform="translate(74.748 25.951)" fill="#ebebeb"/>
      <path id="Path_976" data-name="Path 976" d="M123.383,70.474A1.379,1.379,0,1,1,122,69.095a1.379,1.379,0,0,1,1.379,1.379Z" transform="translate(-57.253 -51.563)" fill="#e0e0e0"/>
      <rect id="Rectangle_472" data-name="Rectangle 472" width="0.852" height="19.534" transform="translate(64.325 22.703)" fill="#e0e0e0"/>
    </g>
    <g id="Floor" transform="translate(6.236 304.395)">
      <path id="Path_977" data-name="Path 977" d="M324.971,478.73c0,.1-64.694.176-144.479.176C100.68,478.905,36,478.826,36,478.73s64.68-.176,144.492-.176C260.277,478.553,324.971,478.632,324.971,478.73Z" transform="translate(-36 -478.554)" fill="#263238"/>
    </g>
    <g id="Character" transform="translate(38.824 32.291)">
      <rect id="Rectangle_473" data-name="Rectangle 473" width="195.937" height="6.274" transform="translate(0 110.569)" fill="#e0e0e0"/>
      <path id="Path_978" data-name="Path 978" d="M80.778,376.238l-6.361-.022V219.652h6.361Z" transform="translate(-62.997 -103.638)" fill="#e0e0e0"/>
      <path id="Path_979" data-name="Path 979" d="M330.828,376.224H324.4l.065-156.572h6.361Z" transform="translate(-144.201 -103.638)" fill="#e0e0e0"/>
      <path id="Path_980" data-name="Path 980" d="M196.728,153.861S231.7,190.5,231.087,198.634s-8.443,9.9-11,9.58-21.782-21.731-21.782-21.731Z" transform="translate(-120.798 -100.978)" fill="#407bff"/>
      <g id="Group_784" data-name="Group 784" transform="translate(75.93 52.883)" opacity="0.4">
        <path id="Path_981" data-name="Path 981" d="M196.728,153.861S231.7,190.5,231.087,198.634s-8.443,9.9-11,9.58-21.782-21.731-21.782-21.731Z" transform="translate(-196.728 -153.861)"/>
      </g>
      <path id="Path_982" data-name="Path 982" d="M197.571,392.768l9.481,31.73,10.659-5.788-6.056-29.05Z" transform="translate(-103.002 -158.862)" fill="#ffc3bd"/>
      <path id="Path_983" data-name="Path 983" d="M245.279,439.721l3.265,15.018s16.362,1.725,17.235,4.441l-28.891,7.377-6.048-23.191Z" transform="translate(-131.879 -193.835)" fill="#1a293d"/>
      <g id="Group_785" data-name="Group 785" transform="translate(104.491 264.171)" opacity="0.4">
        <path id="Path_985" data-name="Path 985" d="M239.549,475.355l-.518-2.361,27.894-6.19s1.429.231,1.515,1.174Z" transform="translate(-239.031 -466.803)"/>
      </g>
      <path id="Path_992" data-name="Path 992" d="M186.2,284.752c.351,1.4,25.12,102.457,25.12,102.457l22.492-6.79L212.573,278.063Z" transform="translate(-117.377 -141.323)" fill="#263238"/>
      <path id="Path_993" data-name="Path 993" d="M179.366,90.4l-3.931,30.193a9.057,9.057,0,0,0,8.257,10.2h0a9.062,9.062,0,0,0,9.708-7.873c.294-2.273.543-4.168.589-4.4,0,0,7.78.278,9.326-7.257.747-3.641,1.674-11.267,2.434-18.175a14.327,14.327,0,0,0-11.542-15.628l-.729-.14C185.531,76.264,180.2,82.426,179.366,90.4Z" transform="translate(-113.857 -76.076)" fill="#ffc3bd"/>
      <path id="Path_994" data-name="Path 994" d="M198.522,135.98a17.887,17.887,0,0,1-9.309-4.692s1.283,5.883,8.95,6.652Z" transform="translate(-118.357 -93.646)" fill="#e8b1ac"/>
      <path id="Path_995" data-name="Path 995" d="M216.119,106.469a1.1,1.1,0,0,1-1.249.888,1.051,1.051,0,0,1-.925-1.186,1.1,1.1,0,0,1,1.248-.889,1.051,1.051,0,0,1,.926,1.187Z" transform="translate(-126.388 -85.193)" fill="#263238"/>
      <path id="Path_996" data-name="Path 996" d="M215.217,104.354c-.161.115-.862-.647-2.023-.867-1.157-.236-2.123.2-2.222.031-.05-.075.135-.3.558-.5a3.012,3.012,0,0,1,1.812-.2,2.893,2.893,0,0,1,1.576.866C215.223,104.025,215.3,104.3,215.217,104.354Z" transform="translate(-125.422 -84.378)" fill="#263238"/>
      <path id="Path_997" data-name="Path 997" d="M198.824,104.016a1.1,1.1,0,0,1-1.249.888,1.05,1.05,0,0,1-.925-1.186,1.1,1.1,0,0,1,1.249-.889,1.051,1.051,0,0,1,.926,1.187Z" transform="translate(-120.77 -84.397)" fill="#263238"/>
      <path id="Path_998" data-name="Path 998" d="M198.026,101.655c-.161.115-.863-.647-2.023-.867-1.157-.236-2.123.2-2.222.03-.049-.075.134-.3.558-.5a3.013,3.013,0,0,1,1.812-.2,2.9,2.9,0,0,1,1.577.866C198.03,101.326,198.1,101.6,198.026,101.655Z" transform="translate(-119.838 -83.501)" fill="#263238"/>
      <path id="Path_999" data-name="Path 999" d="M203.738,112.073a7.82,7.82,0,0,1,1.951.022c.3.026.594.021.683-.171a1.537,1.537,0,0,0-.029-.916q-.211-1.156-.443-2.425a39.49,39.49,0,0,1-.834-6.282,39.565,39.565,0,0,1,1.337,6.2l.4,2.432a1.747,1.747,0,0,1-.07,1.193.757.757,0,0,1-.571.34,2.057,2.057,0,0,1-.517-.027A7.691,7.691,0,0,1,203.738,112.073Z" transform="translate(-123.075 -84.229)" fill="#263238"/>
      <path id="Path_1000" data-name="Path 1000" d="M198.653,98.254c-.176.293-1.305-.079-2.7-.176-1.392-.126-2.566.062-2.692-.256-.055-.151.194-.411.7-.631a4.7,4.7,0,0,1,4.107.329C198.526,97.818,198.73,98.114,198.653,98.254Z" transform="translate(-119.67 -82.464)" fill="#263238"/>
      <path id="Path_1001" data-name="Path 1001" d="M216.171,98.075c-.255.224-1-.2-1.961-.4-.952-.231-1.809-.164-1.944-.476-.056-.15.122-.389.526-.57a2.9,2.9,0,0,1,3.146.706C216.227,97.671,216.286,97.964,216.171,98.075Z" transform="translate(-125.842 -82.323)" fill="#263238"/>
      <path id="Path_1002" data-name="Path 1002" d="M177.82,104.9c-.118-.081-4.895-2.533-5.722,2.663s4.559,4.955,4.592,4.807S177.82,104.9,177.82,104.9Z" transform="translate(-112.769 -84.862)" fill="#ffc3bd"/>
      <path id="Path_1003" data-name="Path 1003" d="M176.069,110.926c-.02-.02-.1.049-.265.095a.917.917,0,0,1-.679-.094,2.268,2.268,0,0,1-.716-2.174,3.026,3.026,0,0,1,.46-1.255,1.058,1.058,0,0,1,.791-.586.466.466,0,0,1,.495.333c.046.156,0,.255.023.268s.125-.069.118-.29a.586.586,0,0,0-.153-.358.692.692,0,0,0-.479-.212,1.288,1.288,0,0,0-1.074.655,3.111,3.111,0,0,0-.545,1.4,2.379,2.379,0,0,0,.963,2.454.981.981,0,0,0,.85-.006C176.039,111.05,176.085,110.938,176.069,110.926Z" transform="translate(-113.422 -85.643)" fill="#eb996e"/>
      <path id="Path_1004" data-name="Path 1004" d="M176.387,94.842a2.763,2.763,0,0,1,2.241,1.752c.194.8.107,1.652.3,2.454s.821,1.615,1.646,1.58a1.618,1.618,0,0,0,1.3-.971,4.449,4.449,0,0,0,.336-1.662c.159-2.47.112-4.959.482-7.407a12.633,12.633,0,0,1,2.874-6.728,6.91,6.91,0,0,1,6.693-2.234c1.58.438,2.891,1.558,4.443,2.087a6.423,6.423,0,0,0,5.577-.742,2.592,2.592,0,0,1,.281-.149,1.418,1.418,0,0,0,.807-1.515,1.372,1.372,0,0,0-.21-.553c-2.6-3.533-8.143-5.446-12.523-5.2a15.345,15.345,0,0,0-11.414,6.015c-2.55,3.57-3.064,9.118-2.836,13.271" transform="translate(-114.174 -75.535)" fill="#263238"/>
      <path id="Path_1005" data-name="Path 1005" d="M205.674,121.426a8.217,8.217,0,0,1-3.173-1.169,8.22,8.22,0,0,1,3.173,1.169Z" transform="translate(-122.673 -90.062)" fill="#263238"/>
      <path id="Path_1006" data-name="Path 1006" d="M211.466,130.615a3.243,3.243,0,0,1-.642,1.4A7.8,7.8,0,0,1,208,134.452a13.382,13.382,0,0,1-3.519,1.2,5.64,5.64,0,0,1-1.523.2,8.132,8.132,0,0,1,1.465-.441,16.981,16.981,0,0,0,3.413-1.271,8.641,8.641,0,0,0,2.784-2.269C211.194,131.141,211.41,130.591,211.466,130.615Z" transform="translate(-122.822 -93.427)" fill="#e8b1ac"/>
      <path id="Path_1007" data-name="Path 1007" d="M207.653,136.328c-1.828.915-3.175,3.4-4.337,5.014a3.986,3.986,0,0,0-.821,1.609,3.748,3.748,0,0,0,.327,1.883c.334.9.71,1.782,1.086,2.665.107.251.249.533.515.593.338.077.626-.255.765-.573a9.479,9.479,0,0,0,.428-2.539,2.625,2.625,0,0,1,1.254-2.134" transform="translate(-122.667 -95.283)" fill="#e8b1ac"/>
      <path id="Path_1008" data-name="Path 1008" d="M211.308,142.877l-1.78-1.329a.535.535,0,0,0-.743.064l-.945,1.092a.008.008,0,0,0,0,.01l.5,2.763c.582,3.543-2.044,2.99-2.044,2.99l-.209-.678-1.154-4.321c-.232-2.062-.068-2.306.935-3.8l2.2-3.147a1.772,1.772,0,0,1,2.086-.675c3.159,1.166,9.974,3.278,10.741,5.955,1.4,4.878,2.526,17.32,2.546,17.541v0l-9.618.863h0l.045-8.3a4.3,4.3,0,0,1-1.808-2.277,60.666,60.666,0,0,1-.751-6.752" transform="translate(-123.432 -95.09)" fill="#ffc3bd"/>
      <path id="Path_1009" data-name="Path 1009" d="M219.414,146.831c.015.016-.1.167-.366.389a3.116,3.116,0,0,1-1.31.664,2.368,2.368,0,0,1-1.043-.008,1.877,1.877,0,0,1-1.032-.64c-.564-.68-.645-1.638-1.147-2.334a4.333,4.333,0,0,0-.991-.812,9.378,9.378,0,0,0-1.077-.6,1.949,1.949,0,0,0-.986-.279,2.008,2.008,0,0,0-.785.464c-.872.808-1.349,1.411-1.4,1.361-.018-.016.086-.173.289-.445a9.172,9.172,0,0,1,.944-1.1,2.165,2.165,0,0,1,.887-.564.934.934,0,0,1,.326-.018,2.152,2.152,0,0,1,.294.071,4.812,4.812,0,0,1,.565.216,8.946,8.946,0,0,1,1.128.606,4.419,4.419,0,0,1,1.088.893c.573.827.636,1.762,1.116,2.34a1.851,1.851,0,0,0,1.777.607,3.411,3.411,0,0,0,1.275-.53C219.247,146.928,219.4,146.812,219.414,146.831Z" transform="translate(-124.874 -97.418)" fill="#e8b1ac"/>
      <path id="Path_1010" data-name="Path 1010" d="M220.181,152.328a12.434,12.434,0,0,1-5.257-1.518,79.958,79.958,0,0,1,5.257,1.518Z" transform="translate(-126.708 -99.987)" fill="#eb996e"/>
      <path id="Path_1011" data-name="Path 1011" d="M213.87,146.353c-2.522.006-2.816-.116-5.674.04a4.048,4.048,0,0,0-1.256.2,1.369,1.369,0,0,0-.864.876c-.2.782.59,1.5,1.377,1.674s1.62.04,2.406.222a5.289,5.289,0,0,1,3.165,1.857c1.644,2.335,3.372,1.212,4.5,2.045l2.946-1.86-1.041-4.35-5.555-.7" transform="translate(-123.825 -98.526)" fill="#ffc3bd"/>
      <path id="Path_1012" data-name="Path 1012" d="M217.82,153.207a3.23,3.23,0,0,0-.806-.249,7.206,7.206,0,0,1-2.333-.41,3.715,3.715,0,0,1-1.287-1.058,4.338,4.338,0,0,0-1.3-1.24,6.447,6.447,0,0,0-1.853-.746,15.936,15.936,0,0,0-2.177-.188,2.1,2.1,0,0,1-1.846-1.341,1.2,1.2,0,0,1,.281-1.133,1.847,1.847,0,0,1,.944-.543,11.032,11.032,0,0,1,1.887-.154c.585-.019,1.13-.026,1.628-.017,1,.02,1.8.07,2.35.092a4.261,4.261,0,0,1,.861.072,3.912,3.912,0,0,1-.862.065c-.555.019-1.361.007-2.349.019-.494.007-1.035.029-1.616.06a11.544,11.544,0,0,0-1.817.176c-.578.127-1.162.662-.975,1.271a1.778,1.778,0,0,0,1.558,1.083,14.949,14.949,0,0,1,2.216.2,6.634,6.634,0,0,1,1.941.805,4.575,4.575,0,0,1,1.355,1.334,3.528,3.528,0,0,0,1.169,1.017,8.15,8.15,0,0,0,2.248.5,1.855,1.855,0,0,1,.608.235C217.769,153.148,217.827,153.2,217.82,153.207Z" transform="translate(-123.868 -98.465)" fill="#e8b1ac"/>
      <path id="Path_1013" data-name="Path 1013" d="M217.221,143.433c0-.043.185-.079.445.041a1.151,1.151,0,0,1,.27,1.9c-.216.188-.4.2-.416.163s.1-.141.231-.33a1.078,1.078,0,0,0-.216-1.518C217.36,143.54,217.212,143.485,217.221,143.433Z" transform="translate(-127.455 -97.578)" fill="#e8b1ac"/>
      <path id="Path_1014" data-name="Path 1014" d="M192.9,283.365l-12.313,30.742,11.946,2.1,13.328-26.512Z" transform="translate(-97.486 -124.334)" fill="#ffc3bd"/>
      <path id="Path_1015" data-name="Path 1015" d="M225.2,339.374l-6.785,13.79s11.738,11.528,10.733,14.2l-27.211-12.195,9.69-21.921Z" transform="translate(-122.491 -159.249)" fill="#1a293d"/>
      <g id="Group_786" data-name="Group 786" transform="translate(79.448 193.706)" opacity="0.4">
        <path id="Path_1017" data-name="Path 1017" d="M201.939,364.649l.978-2.213,25.777,12.545s.975,1.07.456,1.862Z" transform="translate(-201.939 -362.437)"/>
      </g>
      <path id="Path_1024" data-name="Path 1024" d="M173.874,246.72l37.919-18.567a16.805,16.805,0,0,1,19.739,3.694h0A16.8,16.8,0,0,1,234.3,250.6l-25.159,51.732-21.044-6.634L206.6,256.261l-20.818,15.865a32.717,32.717,0,0,1-19.551,6.694l-5.452.047a26.186,26.186,0,0,1-21.829-13.5h0Z" transform="translate(-102.03 -124.554)" fill="#263238"/>
      <path id="Path_1025" data-name="Path 1025" d="M219.124,314.684l-15.338-4.771-.155-.048.069-.148,13.353-28.532,5.126-10.913.258.209c-9.549,7.114-18.094,13.022-24.4,16.913a65.244,65.244,0,0,1-7.631,4.17,11.994,11.994,0,0,1-2.212.753,2.958,2.958,0,0,1-.6.078,1.028,1.028,0,0,1-.2.007c0-.023.279-.022.791-.144a13.1,13.1,0,0,0,2.177-.8,70.012,70.012,0,0,0,7.563-4.248c6.264-3.936,14.78-9.878,24.31-17l.549-.41-.29.62-5.118,10.917-13.414,28.5-.086-.2,15.3,4.888L223.4,315.9l1.1.37Z" transform="translate(-117.765 -138.638)" fill="#263238"/>
      <path id="Path_1026" data-name="Path 1026" d="M246.193,257.923a17.814,17.814,0,0,0-7.3,8.72,5.568,5.568,0,0,1,.5-1.643,14.03,14.03,0,0,1,5.27-6.294,5.569,5.569,0,0,1,1.529-.783Z" transform="translate(-134.494 -134.781)" fill="#455a64"/>
      <path id="Path_1027" data-name="Path 1027" d="M129.977,366.338H184.52a1.4,1.4,0,0,1,1.4,1.361h0a1.4,1.4,0,0,1-1.4,1.439H129.977a1.4,1.4,0,0,1-1.4-1.4h0a1.4,1.4,0,0,1,1.4-1.4Z" transform="translate(-98.66 -169.998)" fill="#e0e0e0"/>
      <path id="Path_1028" data-name="Path 1028" d="M180.281,310.935H137.617a8.266,8.266,0,0,1,8.267-8.267h26.131a8.266,8.266,0,0,1,8.266,8.266Z" transform="translate(-101.597 -149.316)" fill="#455a64"/>
      <rect id="Rectangle_474" data-name="Rectangle 474" width="45.009" height="2.507" transform="translate(35.016 161.619)" fill="#e0e0e0"/>
      <path id="Path_1029" data-name="Path 1029" d="M110,290.912,99,399.386h2.589l13.431-108.474Z" transform="translate(-70.982 -126.785)" fill="#e0e0e0"/>
      <path id="Path_1030" data-name="Path 1030" d="M167.188,290.912l11,108.42-2.588.014L162.179,290.953Z" transform="translate(-91.505 -126.785)" fill="#e0e0e0"/>
      <path id="Path_1031" data-name="Path 1031" d="M144.168,289.355,142.316,398.78h-2.657L138.5,289.055Z" transform="translate(-83.814 -126.182)" fill="#e0e0e0"/>
      <path id="Path_1032" data-name="Path 1032" d="M145.617,109.45l2.672-8.117,17.643,8.165-.807,8.589-8.793,2.5L147.7,115.3Z" transform="translate(-86.125 -65.204)" fill="#407bff"/>
      <path id="Path_1033" data-name="Path 1033" d="M137.76,236.9a5.867,5.867,0,0,1-2.472-4.923c-.008-3.253,2.9-3.521,3-5.321.971-18.6,3.076-57.134,4.465-69.293,1.751-15.326,19.706-18.564,19.706-18.564l14.825,3.642v1.12c5.131,6.6,7.351,16.539,7.355,24.9l-.691,44.281Z" transform="translate(-100.84 -96.085)" fill="#407bff"/>
      <path id="Path_1034" data-name="Path 1034" d="M155.389,247.366a4.765,4.765,0,0,1-.55.756c-.37.474-.926,1.143-1.628,1.956-1.4,1.627-3.426,3.808-5.8,6.075s-4.648,4.184-6.339,5.511c-.845.664-1.539,1.188-2.03,1.536a4.764,4.764,0,0,1-.781.514,4.765,4.765,0,0,1,.7-.622l1.957-1.62c1.647-1.374,3.885-3.314,6.253-5.572s4.407-4.405,5.855-5.986l1.709-1.88A4.774,4.774,0,0,1,155.389,247.366Z" transform="translate(-101.807 -131.352)" fill="#263238"/>
      <g id="Group_787" data-name="Group 787" transform="translate(38.976 117.446)" opacity="0.2">
        <path id="Path_1035" data-name="Path 1035" d="M141.995,262.547c.053-2.8,2.149-5.11,4.227-6.992a69.03,69.03,0,0,1,7.742-6.069c.132,1.369-.8,2.591-1.7,3.626a72.723,72.723,0,0,1-10.045,9.488" transform="translate(-141.995 -249.486)"/>
      </g>
      <path id="Path_1036" data-name="Path 1036" d="M180.428,136.865a16.607,16.607,0,0,1,1.427-4.6,16.609,16.609,0,0,1-1.427,4.6Z" transform="translate(-115.503 -93.962)" fill="#263238"/>
      <path id="Path_1037" data-name="Path 1037" d="M190.114,135.67a15.953,15.953,0,0,1-1.058,4.6,15.983,15.983,0,0,1,1.058-4.6Z" transform="translate(-118.306 -95.069)" fill="#263238"/>
      <path id="Path_1038" data-name="Path 1038" d="M197.931,139.459a9.671,9.671,0,0,1-.182,2.13,9.667,9.667,0,0,1-.31,2.116,8.09,8.09,0,0,1,.492-4.246Z" transform="translate(-120.999 -96.3)" fill="#263238"/>
      <path id="Path_1039" data-name="Path 1039" d="M162.677,203.434a3.067,3.067,0,0,1-.748.054c-.482.012-1.178.018-2.04.018-1.722,0-4.1-.025-6.73-.074s-5.008-.113-6.73-.178c-.861-.032-1.557-.064-2.039-.094a3.092,3.092,0,0,1-.746-.082,3.089,3.089,0,0,1,.749-.054c.482-.012,1.179-.018,2.04-.018,1.722,0,4.1.025,6.729.075s5.005.113,6.727.177l2.039.094a3.116,3.116,0,0,1,.748.082Z" transform="translate(-103.555 -116.942)" fill="#fafafa"/>
      <path id="Path_1040" data-name="Path 1040" d="M158.988,195.059c0,.1-3.386.1-7.557.015s-7.552-.24-7.55-.337,3.385-.1,7.558-.015S158.99,194.962,158.988,195.059Z" transform="translate(-103.631 -114.231)" fill="#fafafa"/>
      <g id="Group_788" data-name="Group 788" transform="translate(48.942 72.099)" opacity="0.2">
        <path id="Path_1041" data-name="Path 1041" d="M156.755,182.322a183.785,183.785,0,0,0,19.679,32.731c1.978,2.682,4.1,5.374,6.956,7.085s4.752,1.234,7.6-.489a17.874,17.874,0,0,1-6.74-3.3,32.235,32.235,0,0,1-6.815-7.271c-6.761-9.288-13.344-18.856-20.1-28.144" transform="translate(-156.755 -182.322)"/>
      </g>
      <path id="Path_1042" data-name="Path 1042" d="M239.924,205.412a6.593,6.593,0,0,1,.624-2.251,2.238,2.238,0,0,1,1.864-1.238,1.375,1.375,0,0,1,1.364,1.528,3.446,3.446,0,0,1-.747,1.153c-.862,1.172-.781,2.759-.769,4.214s-.182,3.106-1.346,3.98" transform="translate(-134.829 -116.59)" fill="#ffc3bd"/>
      <path id="Path_1043" data-name="Path 1043" d="M158.06,155.825a12.263,12.263,0,0,0-2.742,17.468l24.671,32.49a18.486,18.486,0,0,0,22.785,5.336h0a18.486,18.486,0,0,0,10.33-17.6l-5.432-34.166-13.276.825L195.651,188l-20.537-29.186a12.263,12.263,0,0,0-17.053-2.995Z" transform="translate(-106.536 -100.897)" fill="#407bff"/>
      <path id="Path_1044" data-name="Path 1044" d="M234.07,221.246c-3.265-.762-3.82-1.323-7.085-2.086-.972-.227-2.22-.858-1.784-1.886a1.383,1.383,0,0,1,1.385-.81c1.273.1,3.32.861,4.546.978.307.029.3-.279.163-.489a39.292,39.292,0,0,0-6.1-1.31,1.5,1.5,0,0,1-.751-2.643,2.231,2.231,0,0,1,.874-.25c1.307.189,1.307.189,2.7.43,3.914.677,3.395-.1,3.395-.1.025-.294-4.454-.727-6.743-1a1.961,1.961,0,0,1-1.333-.518,1.291,1.291,0,0,1,.155-1.628,2.272,2.272,0,0,1,1.571-.786c2.545-.044,10.9.885,10.9.885a6.732,6.732,0,0,1,.76,4.528A17.328,17.328,0,0,1,234.07,221.246Z" transform="translate(-129.371 -118.937)" fill="#ffc3bd"/>
      <path id="Path_1045" data-name="Path 1045" d="M199.378,212.012s-.119.023-.353.05l-1.039.108c-.914.083-2.265.213-4.013.232a19.482,19.482,0,0,1-6.294-.871,17.78,17.78,0,0,1-6.947-4.7,92.207,92.207,0,0,1-6.516-7.861c-2.221-2.92-4.544-6.077-6.96-9.419s-4.919-6.873-7.491-10.551l-3.9-5.626-.986-1.439-.467-.755a5.507,5.507,0,0,1-.425-.783,12.225,12.225,0,0,1-1.18-6.99,13.6,13.6,0,0,1,.338-1.748,13.438,13.438,0,0,1,.6-1.661,13.585,13.585,0,0,1,.806-1.559,13.349,13.349,0,0,1,1.033-1.4,11.932,11.932,0,0,1,2.55-2.293,12.809,12.809,0,0,1,3.022-1.493,12.439,12.439,0,0,1,9.457.741,12.641,12.641,0,0,1,4.533,4l3.237,4.671,5.805,8.388,8.386,12.159,2.265,3.316.582.867c.129.2.188.3.188.3s-.079-.092-.218-.282l-.61-.848-2.319-3.278-8.478-12.1-5.841-8.364-3.251-4.661a12.338,12.338,0,0,0-4.425-3.883,12.117,12.117,0,0,0-9.2-.706,12.483,12.483,0,0,0-2.937,1.455,11.6,11.6,0,0,0-2.476,2.231,13.016,13.016,0,0,0-1,1.362,13.252,13.252,0,0,0-.782,1.515,13.115,13.115,0,0,0-.586,1.614,13.266,13.266,0,0,0-.327,1.7,11.883,11.883,0,0,0,1.146,6.79,24.09,24.09,0,0,0,1.852,2.936l3.891,5.627c2.566,3.679,5.064,7.212,7.471,10.558s4.72,6.507,6.929,9.431a93.361,93.361,0,0,0,6.462,7.864,17.647,17.647,0,0,0,6.832,4.689,19.581,19.581,0,0,0,6.23.92c1.741,0,3.092-.105,4.007-.166l1.042-.073C199.256,212.011,199.378,212.012,199.378,212.012Z" transform="translate(-106.5 -100.583)" fill="#263238"/>
      <path id="Path_1046" data-name="Path 1046" d="M217.531,214.515a14.364,14.364,0,0,0-1.7-10.682,4.918,4.918,0,0,1,.954,1.346,11.715,11.715,0,0,1,1.235,7.76,4.924,4.924,0,0,1-.489,1.576Z" transform="translate(-127.003 -117.21)" fill="#263238"/>
      <path id="Path_1047" data-name="Path 1047" d="M218.6,166.931a5.506,5.506,0,0,1-.309-3.7,60.344,60.344,0,0,1,.309,3.7Z" transform="translate(-127.743 -104.021)" fill="#263238"/>
      <path id="Path_1048" data-name="Path 1048" d="M223.972,166.466a5.5,5.5,0,0,1-.473-3.624,42.51,42.51,0,0,1,.473,3.624Z" transform="translate(-129.455 -103.895)" fill="#263238"/>
      <path id="Path_1049" data-name="Path 1049" d="M229.5,165.6a6.475,6.475,0,0,1-.158-2.993A6.478,6.478,0,0,1,229.5,165.6Z" transform="translate(-131.358 -103.819)" fill="#263238"/>
      <path id="Path_1050" data-name="Path 1050" d="M187.424,178.184c.055.08-4.131,3.078-9.35,6.695s-9.5,6.486-9.551,6.407,4.13-3.077,9.351-6.7S187.369,178.1,187.424,178.184Z" transform="translate(-111.636 -108.878)" fill="#fafafa"/>
      <path id="Path_1051" data-name="Path 1051" d="M182.591,170.928a4.685,4.685,0,0,1-.734.565l-2.063,1.447c-1.743,1.218-4.141,2.915-6.748,4.845s-4.929,3.731-6.6,5.043l-1.985,1.551a4.684,4.684,0,0,1-.755.537,4.682,4.682,0,0,1,.667-.643c.444-.4,1.1-.958,1.916-1.639,1.636-1.364,3.938-3.2,6.55-5.133s5.037-3.6,6.818-4.768c.89-.584,1.617-1.047,2.127-1.355A4.684,4.684,0,0,1,182.591,170.928Z" transform="translate(-110.071 -106.522)" fill="#fafafa"/>
    </g>
    <g id="Plant" transform="translate(206.329 181.983)">
      <rect id="Rectangle_475" data-name="Rectangle 475" width="45.94" height="6.312" transform="translate(21.203 85.99)" fill="#263238"/>
      <path id="Path_1052" data-name="Path 1052" d="M409.746,428h-46.1V421.53h46.1Zm-45.94-.157h45.783v-6.155H363.806Z" transform="translate(-342.524 -335.619)" fill="#263238"/>
      <path id="Path_1053" data-name="Path 1053" d="M343.31,400.17l6.613,32.623H374.39l6.392-30.522Z" transform="translate(-317.847 -309.969)" fill="#263238"/>
      <path id="Path_1055" data-name="Path 1055" d="M395.094,396.816c-.09,0-.206-15.113-.259-33.752s-.022-33.756.069-33.756.206,15.11.259,33.755S395.185,396.816,395.094,396.816Z" transform="translate(-352.646 -305.661)" fill="#263238"/>
      <path id="Path_1056" data-name="Path 1056" d="M408.355,373.278a1.6,1.6,0,0,1-.123.351l-.41.978-.3.7-.306.858-.354.984c-.123.349-.219.729-.34,1.122a45.723,45.723,0,0,0-1.285,5.625,68.454,68.454,0,0,0-.711,7.034,94.829,94.829,0,0,0,.363,12.849c.148,1.64.3,2.966.406,3.881.047.429.085.779.116,1.055a.187.187,0,1,1-.065.009l-.177-1.048c-.148-.911-.332-2.234-.51-3.875a84.58,84.58,0,0,1-.46-12.887,64.106,64.106,0,0,1,.741-7.068,42.58,42.58,0,0,1,1.361-5.643c.128-.393.233-.773.364-1.122l.38-.981.333-.852c.113-.257.229-.487.327-.7l.467-.956A1.57,1.57,0,0,1,408.355,373.278Z" transform="translate(-355.673 -319.945)" fill="#263238"/>
      <path id="Path_1057" data-name="Path 1057" d="M405.779,355.174a3.085,3.085,0,0,1-.146.5l-.478,1.405-.351,1.013-.37,1.221c-.269.875-.581,1.868-.857,2.986l-.461,1.747-.43,1.911c-.321,1.315-.553,2.745-.849,4.237-.506,3-.952,6.32-1.26,9.82-.29,3.5-.417,6.85-.461,9.9-.009,3.045.029,5.789.155,8.09.04,1.151.114,2.191.174,3.1s.11,1.7.169,2.342l.112,1.48a3.074,3.074,0,0,1,.017.519,3.086,3.086,0,0,1-.083-.512l-.174-1.475c-.078-.641-.154-1.426-.224-2.34s-.167-1.953-.222-3.106c-.155-2.3-.217-5.052-.225-8.1.028-3.052.146-6.408.437-9.921.308-3.51.765-6.837,1.289-9.845.305-1.5.547-2.927.881-4.244l.45-1.912.483-1.747c.292-1.117.62-2.109.906-2.981l.4-1.215.379-1.005.537-1.386a3.074,3.074,0,0,1,.207-.475Z" transform="translate(-354.272 -314.064)" fill="#263238"/>
      <path id="Path_1058" data-name="Path 1058" d="M386.716,400.473a.728.728,0,0,1-.026-.177l-.043-.52c-.033-.482-.078-1.151-.135-2l-.461-7.362c-.4-6.215-.976-14.8-2.021-24.242-.534-4.721-1.154-9.2-1.8-13.269-.342-2.029-.653-3.96-1.006-5.756-.323-1.8-.671-3.47-.992-4.993-.3-1.527-.639-2.894-.909-4.1s-.524-2.241-.739-3.085l-.477-1.948c-.047-.208-.086-.376-.116-.509a.733.733,0,0,1-.029-.176.711.711,0,0,1,.061.167l.148.5.537,1.933c.234.839.51,1.869.793,3.074s.641,2.569.958,4.094c.335,1.522.7,3.19,1.032,4.991.365,1.8.685,3.728,1.037,5.758.662,4.067,1.291,8.555,1.826,13.281,1.047,9.452,1.587,18.045,1.927,24.265.169,3.11.286,5.628.357,7.369.031.852.056,1.522.074,2l.011.522A.721.721,0,0,1,386.716,400.473Z" transform="translate(-347.174 -306.645)" fill="#263238"/>
      <path id="Path_1059" data-name="Path 1059" d="M387.724,338.25a4.553,4.553,0,0,0-4.514-3.778,7.106,7.106,0,0,0-5.47,2.969,17.106,17.106,0,0,0-2.634,5.845,39.712,39.712,0,0,0-1.62,15.555,23.542,23.542,0,0,0,6.473,14.024,2.652,2.652,0,0,0,2.23,1.02,2.688,2.688,0,0,0,1.176-.727,34.81,34.81,0,0,0,11.3-26.471,10.751,10.751,0,0,0-1.416-5.7c-1.1-1.651-3.656-3.4-5.524-2.741" transform="translate(-345.651 -307.339)" fill="#555cf5"/>
      <path id="Path_1060" data-name="Path 1060" d="M365.261,310.9l-3.029,5.485c-.071.128-.164.271-.309.284s-.278-.137-.365-.271l-8.007-12.288,1.845-1.045Z" transform="translate(-339.244 -297.136)" fill="#555cf5"/>
      <g id="Group_789" data-name="Group 789" transform="translate(14.307 5.926)" opacity="0.2">
        <path id="Path_1061" data-name="Path 1061" d="M365.261,310.9l-3.029,5.485c-.071.128-.164.271-.309.284s-.278-.137-.365-.271l-8.007-12.288,1.845-1.045Z" transform="translate(-353.551 -303.062)"/>
      </g>
      <path id="Path_1062" data-name="Path 1062" d="M381.478,317.931l-27.313-16.117a1.273,1.273,0,0,1-.665-.671c-.109-.4.195-.794.486-1.095a18.824,18.824,0,0,1,14.6-5.734,16.677,16.677,0,0,1,13.2,8.207c2.636,4.71,2.723,10.939-.3,15.41" transform="translate(-339.22 -294.285)" fill="#555cf5"/>
      <path id="Path_1063" data-name="Path 1063" d="M360.327,297.77a1.492,1.492,0,0,1,.358-.044c.236-.012.583-.054,1.032-.05a20.529,20.529,0,0,1,3.79.3,22.15,22.15,0,0,1,17.678,16,20.527,20.527,0,0,1,.677,3.74,7.643,7.643,0,0,1,.042.8,1.343,1.343,0,0,1-.211.6,4.606,4.606,0,0,0,.042-1.379,23.3,23.3,0,0,0-.773-3.691,22.312,22.312,0,0,0-17.5-15.832,23.291,23.291,0,0,0-3.75-.4C360.824,297.783,360.328,297.8,360.327,297.77Z" transform="translate(-341.445 -295.386)" fill="#263238"/>
      <path id="Path_1064" data-name="Path 1064" d="M384.743,312.831a6.6,6.6,0,0,1-1.381.628c-.87.343-2.086.781-3.446,1.214s-2.607.776-3.516,1a6.589,6.589,0,0,1-1.49.284,7.427,7.427,0,0,1,1.428-.507l3.479-1.087,3.468-1.12a7.416,7.416,0,0,1,1.459-.41Z" transform="translate(-346.182 -300.309)" fill="#263238"/>
      <path id="Path_1065" data-name="Path 1065" d="M383.074,295.719a19.09,19.09,0,0,1,.154,6.106,57.307,57.307,0,0,1-.154-6.106Z" transform="translate(-348.813 -294.751)" fill="#263238"/>
      <path id="Path_1066" data-name="Path 1066" d="M354.143,303.368a12.268,12.268,0,0,1,1.984-.7c1.241-.383,2.969-.867,4.895-1.331s3.686-.82,4.965-1.044a12.249,12.249,0,0,1,2.084-.282,14.7,14.7,0,0,1-2.039.509c-1.265.282-3.012.673-4.934,1.135s-3.654.911-4.909,1.236A14.688,14.688,0,0,1,354.143,303.368Z" transform="translate(-339.436 -296.146)" fill="#263238"/>
      <path id="Path_1067" data-name="Path 1067" d="M363.1,332.208c-2.349-1.781-4.833-2.132-7.779-2.015a23.773,23.773,0,0,0-8.513,2.2c-4.606,2.017-8.935,4.99-11.687,9.2s-3.709,9.779-1.649,14.365a2.047,2.047,0,0,0,.933,1.132,2.229,2.229,0,0,0,1.542-.118c5.238-1.709,10.513-3.434,15.33-6.11s9.2-6.4,11.785-11.262a9.679,9.679,0,0,0,1.241-3.737,4.647,4.647,0,0,0-1.2-3.65" transform="translate(-332.361 -305.942)" fill="#555cf5"/>
      <path id="Path_1068" data-name="Path 1068" d="M364.016,332.369a1.921,1.921,0,0,1-.377.153l-1.1.377-.795.265c-.288.1-.6.233-.929.362-.663.268-1.432.536-2.242.929l-1.284.585c-.446.206-.89.459-1.361.7-.95.466-1.91,1.062-2.933,1.666a46.341,46.341,0,0,0-11.556,10.167c-.729.938-1.443,1.815-2.027,2.7-.3.436-.605.845-.866,1.261l-.744,1.2c-.493.753-.857,1.483-1.207,2.106-.17.314-.338.6-.477.875l-.364.754-.514,1.04a1.911,1.911,0,0,1-.2.354,1.88,1.88,0,0,1,.14-.381l.459-1.068.34-.769c.132-.278.291-.571.455-.891.336-.634.688-1.374,1.171-2.139l.73-1.217c.257-.422.56-.836.855-1.279.578-.894,1.287-1.783,2.015-2.733a44.884,44.884,0,0,1,11.632-10.234c1.034-.6,2.006-1.192,2.967-1.651.476-.236.926-.485,1.377-.686l1.3-.569c.82-.381,1.6-.636,2.271-.889.338-.121.649-.242.941-.338l.807-.239,1.118-.32A1.88,1.88,0,0,1,364.016,332.369Z" transform="translate(-333.232 -306.656)" fill="#263238"/>
      <path id="Path_1069" data-name="Path 1069" d="M345.23,347.087a110.145,110.145,0,0,1-11.52,3.368,110.133,110.133,0,0,1,11.52-3.368Z" transform="translate(-332.799 -311.437)" fill="#263238"/>
      <path id="Path_1070" data-name="Path 1070" d="M350.353,359.918a9.144,9.144,0,0,1-.126-1.78c-.03-1.1-.035-2.622.012-4.3s.137-3.2.229-4.3a9.144,9.144,0,0,1,.225-1.77,10.189,10.189,0,0,1,.006,1.783l-.132,4.293c-.041,1.62-.077,3.086-.108,4.293a10.188,10.188,0,0,1-.106,1.78Z" transform="translate(-338.157 -311.658)" fill="#263238"/>
      <path id="Path_1071" data-name="Path 1071" d="M365.951,350.957c-.09.006-.377-3.086-.641-6.9s-.405-6.922-.315-6.928.377,3.085.641,6.906S366.041,350.951,365.951,350.957Z" transform="translate(-342.952 -308.2)" fill="#263238"/>
      <path id="Path_1072" data-name="Path 1072" d="M346.509,336.645a10.182,10.182,0,0,1,1.832-.055c1.129.008,2.688.041,4.409.1s3.279.127,4.407.194a10.171,10.171,0,0,1,1.824.176,10.12,10.12,0,0,1-1.829.055c-1.129-.008-2.69-.041-4.413-.1s-3.281-.127-4.409-.194A10.129,10.129,0,0,1,346.509,336.645Z" transform="translate(-336.956 -308.021)" fill="#263238"/>
      <path id="Path_1073" data-name="Path 1073" d="M384.851,375.438a1.549,1.549,0,0,1-.039-.365c-.013-.275-.029-.623-.048-1.051-.041-.913-.051-2.235-.015-3.868s.141-3.577.337-5.729c.213-2.15.521-4.509.961-6.965s1-4.773,1.554-6.863c.575-2.086,1.156-3.948,1.7-5.491s1.018-2.782,1.379-3.625l.416-.97a.185.185,0,1,1,.061.024l-.358.99c-.323.855-.764,2.1-1.278,3.652s-1.075,3.411-1.632,5.495c-.541,2.087-1.073,4.4-1.524,6.845s-.755,4.8-.984,6.937c-.212,2.143-.347,4.079-.406,5.708s-.09,2.948-.088,3.859c-.005.428-.01.776-.013,1.051A1.561,1.561,0,0,1,384.851,375.438Z" transform="translate(-349.371 -309.194)" fill="#263238"/>
      <path id="Path_1074" data-name="Path 1074" d="M383.062,365.915a7.488,7.488,0,0,1-1.089,1.2c-.707.7-1.71,1.651-2.855,2.655s-2.215,1.875-3.006,2.483a7.486,7.486,0,0,1-1.328.923,8.435,8.435,0,0,1,1.182-1.1l2.937-2.55,2.912-2.577A8.436,8.436,0,0,1,383.062,365.915Z" transform="translate(-346.141 -317.553)" fill="#263238"/>
      <path id="Path_1075" data-name="Path 1075" d="M396.137,370.892a12.859,12.859,0,0,1-1.161-1.607l-2.7-3.939-2.755-3.9a12.819,12.819,0,0,1-1.1-1.647,11.091,11.091,0,0,1,1.289,1.508c.757.962,1.771,2.318,2.839,3.852s1.986,2.955,2.625,4a11.08,11.08,0,0,1,.966,1.733Z" transform="translate(-350.57 -315.566)" fill="#263238"/>
      <path id="Path_1076" data-name="Path 1076" d="M386.885,343.789c.049.076-2.823,2.009-6.414,4.318s-6.542,4.119-6.591,4.043,2.822-2.009,6.414-4.318S386.836,343.713,386.885,343.789Z" transform="translate(-345.847 -310.365)" fill="#263238"/>
      <path id="Path_1077" data-name="Path 1077" d="M401.066,352.76a106.87,106.87,0,0,1-8.459-8.262A106.865,106.865,0,0,1,401.066,352.76Z" transform="translate(-351.931 -310.596)" fill="#263238"/>
      <path id="Path_1078" data-name="Path 1078" d="M408.152,347.8l2.465-.2a12.2,12.2,0,0,0,4.978-1.524,19.828,19.828,0,0,1,2.32-1.165c3.048-1.224,6.449-1,9.729-1.169a40.284,40.284,0,0,0,15.477-3.957,1.5,1.5,0,0,0,.674-.612c.506-.922-.434-1.744-1.244-2.243-4.153-2.559-8.381-5.151-13.091-6.422s-10.057-1.055-14.076,1.71c-4.718,3.247-6.437,9.915-7.234,15.586" transform="translate(-356.98 -305.806)" fill="#555cf5"/>
      <path id="Path_1079" data-name="Path 1079" d="M443.878,339.988a2.439,2.439,0,0,1-.418-.195l-1.169-.612c-1.013-.533-2.472-1.32-4.316-2.2a40.35,40.35,0,0,0-6.681-2.575,22.057,22.057,0,0,0-8.659-.7,14.8,14.8,0,0,0-7.893,3.389,17.558,17.558,0,0,0-4.11,5.773,48.333,48.333,0,0,0-1.788,4.5L408.4,348.6a2.435,2.435,0,0,1-.172.427,2.434,2.434,0,0,1,.11-.448l.381-1.264a41.039,41.039,0,0,1,1.7-4.552,17.472,17.472,0,0,1,4.12-5.9,14.968,14.968,0,0,1,8.051-3.488,22.042,22.042,0,0,1,8.782.735,38.837,38.837,0,0,1,6.7,2.657c1.837.914,3.281,1.733,4.276,2.3l1.139.666a2.436,2.436,0,0,1,.386.253Z" transform="translate(-357.006 -306.934)" fill="#263238"/>
      <path id="Path_1080" data-name="Path 1080" d="M445.416,343.339c-.051.075-3.275-2.011-7.2-4.658s-7.069-4.855-7.019-4.93,3.275,2.01,7.2,4.659S445.467,343.264,445.416,343.339Z" transform="translate(-364.466 -307.104)" fill="#263238"/>
      <path id="Path_1081" data-name="Path 1081" d="M444.883,333.5a7.842,7.842,0,0,1-2.347.422,7.95,7.95,0,0,1-2.394-.031Q442.5,333.6,444.883,333.5Z" transform="translate(-367.371 -307.023)" fill="#263238"/>
      <path id="Path_1082" data-name="Path 1082" d="M425.106,330.776a6.249,6.249,0,0,1-1.058,1.652,7.076,7.076,0,0,1-1.34,1.523,6.252,6.252,0,0,1,1.058-1.652A7.079,7.079,0,0,1,425.106,330.776Z" transform="translate(-361.708 -306.139)" fill="#263238"/>
      <path id="Path_1083" data-name="Path 1083" d="M425.819,347.429a8.553,8.553,0,0,1-1.552-.841c-.932-.565-2.19-1.394-3.535-2.37s-2.531-1.9-3.383-2.576a9.573,9.573,0,0,1-1.339-1.148,9.279,9.279,0,0,1,1.478.963l3.436,2.5c1.341.973,2.572,1.827,3.469,2.441A10.509,10.509,0,0,1,425.819,347.429Z" transform="translate(-359.533 -309.295)" fill="#263238"/>
      <path id="Path_1084" data-name="Path 1084" d="M410.75,371.454c-2.352-.621-5.154,1.666-5.639,4.049s.409,4.821,1.456,7.016a35.792,35.792,0,0,0,9.724,12.723,24.045,24.045,0,0,0,14.868,5.474c-.994-4.617.263-9.441-.291-14.131a18.383,18.383,0,0,0-16.281-16.119c-1.5-.162-3.238-.4-3.837.988" transform="translate(-355.948 -318.991)" fill="#555cf5"/>
      <path id="Path_1085" data-name="Path 1085" d="M433.937,401.252a1.561,1.561,0,0,1-.335-.156,6.1,6.1,0,0,1-.88-.591A9.17,9.17,0,0,1,430.4,397.4c-.375-.728-.794-1.518-1.2-2.393l-1.265-2.8a27.08,27.08,0,0,0-1.555-2.989,23.451,23.451,0,0,0-2.139-2.91c-1.61-1.891-3.337-3.527-4.835-5.09a33.237,33.237,0,0,1-3.686-4.422,16.243,16.243,0,0,1-1.8-3.44,10.551,10.551,0,0,1-.314-1.009,1.551,1.551,0,0,1-.074-.361c.031-.009.164.48.507,1.323a17.761,17.761,0,0,0,1.873,3.356,35.04,35.04,0,0,0,3.712,4.344c1.5,1.546,3.241,3.178,4.868,5.088a23.229,23.229,0,0,1,2.163,2.954,26.537,26.537,0,0,1,1.556,3.031l1.237,2.807c.395.871.8,1.67,1.163,2.4a9.5,9.5,0,0,0,2.2,3.114C433.491,401,433.957,401.22,433.937,401.252Z" transform="translate(-358.726 -319.526)" fill="#263238"/>
      <path id="Path_1086" data-name="Path 1086" d="M425.746,404.616a7.047,7.047,0,0,1,.216-1.583c.184-.968.486-2.3.894-3.746s.845-2.74,1.193-3.662a7.055,7.055,0,0,1,.642-1.463,8.545,8.545,0,0,1-.423,1.538c-.291.938-.69,2.234-1.1,3.676s-.742,2.755-.983,3.707A8.563,8.563,0,0,1,425.746,404.616Z" transform="translate(-362.695 -326.729)" fill="#263238"/>
      <path id="Path_1087" data-name="Path 1087" d="M437.664,391.635a9.7,9.7,0,0,1-1.656-.381c-1.013-.265-2.412-.627-3.969-.978s-2.977-.623-4.005-.818a9.7,9.7,0,0,1-1.66-.366,8,8,0,0,1,1.7.138c1.041.137,2.475.375,4.041.727s2.962.752,3.962,1.075a8.005,8.005,0,0,1,1.592.6Z" transform="translate(-362.899 -325.081)" fill="#263238"/>
      <path id="Path_1088" data-name="Path 1088" d="M412.822,391.877a9.587,9.587,0,0,1,.254-1.832c.207-1.122.536-2.666.975-4.352s.908-3.194,1.276-4.274A9.575,9.575,0,0,1,416,379.7a11.235,11.235,0,0,1-.452,1.791c-.311,1.1-.741,2.608-1.18,4.288s-.8,3.209-1.066,4.317A11.234,11.234,0,0,1,412.822,391.877Z" transform="translate(-358.497 -322.03)" fill="#263238"/>
      <path id="Path_1089" data-name="Path 1089" d="M428.814,377.555c-.009.09-2.945-.148-6.556-.53s-6.531-.766-6.522-.856,2.944.148,6.556.53S428.823,377.465,428.814,377.555Z" transform="translate(-359.444 -320.877)" fill="#263238"/>
      <path id="Path_1090" data-name="Path 1090" d="M409.745,430.877c0,.09-10.319.164-23.045.164s-23.047-.073-23.047-.164,10.317-.164,23.047-.164S409.745,430.787,409.745,430.877Z" transform="translate(-342.525 -338.602)" fill="#455a64"/>
    </g>
    <g id="Speech_Bubble" data-name="Speech Bubble" transform="translate(135.065 0.01)">
      <path id="Path_1094" data-name="Path 1094" d="M277.02,40.915c-6.026-1.342-13.754,2.838-15.837,8.469s.178,12.6,4.712,16.533a14.708,14.708,0,0,0-.7,16.247,17.1,17.1,0,0,0,14.552,7.852,20.474,20.474,0,0,0,15.1-7.28A14.766,14.766,0,0,0,315.9,66.8c6.83-2.492,10.584-11.222,7.693-17.894S311.77,39,305.28,42.28a14.152,14.152,0,0,0-28.26-1.365h0" transform="translate(-237.723 -27.767)" fill="#fafafa"/>
      <path id="Path_1095" data-name="Path 1095" d="M276.842,40.9c-.007-.03,0-.009,0-.016l.008,0,.037-.007.09-.016.112-.02c0,.052-.076.028-.117.046l-.02.009,0-.025a12.865,12.865,0,0,1,1.038-4.2,14.99,14.99,0,0,1,2.063-3.4,15.29,15.29,0,0,1,3.8-3.368,13.927,13.927,0,0,1,5.737-2.078l.834-.094.855-.008a13.136,13.136,0,0,1,1.749.124A13.582,13.582,0,0,1,296.55,28.9a6.2,6.2,0,0,1,.857.42c.279.158.567.306.846.474a16.344,16.344,0,0,1,1.6,1.161,14.176,14.176,0,0,1,2.808,3,14.017,14.017,0,0,1,2.708,8.286l-.207-.13a13.477,13.477,0,0,1,9.6-.753,13.919,13.919,0,0,1,8.313,6.225,13.083,13.083,0,0,1,.761,10.957,14.791,14.791,0,0,1-3,5.013,12.722,12.722,0,0,1-4.929,3.369l.111-.194a15.043,15.043,0,0,1-.978,8.5,14.773,14.773,0,0,1-5.628,6.784,15.346,15.346,0,0,1-14.687.842l.209-.043A21.077,21.077,0,0,1,282.6,89.883,17.755,17.755,0,0,1,269.6,87a15.965,15.965,0,0,1-4.456-4.615,14.73,14.73,0,0,1-2.084-5.774,15.233,15.233,0,0,1,.287-5.839,13.727,13.727,0,0,1,2.395-4.985l.018.184a16.5,16.5,0,0,1-4.573-6.823,15.6,15.6,0,0,1-.848-3.717,13.6,13.6,0,0,1,.063-3.584,11.153,11.153,0,0,1,2.613-5.82,15.482,15.482,0,0,1,4.192-3.41,16.749,16.749,0,0,1,4.015-1.612,13.825,13.825,0,0,1,3.148-.417,10.039,10.039,0,0,1,1.949.152c.435.078.655.127.655.127s-.226-.023-.661-.088a10.744,10.744,0,0,0-1.941-.113,14.022,14.022,0,0,0-3.121.45,16.786,16.786,0,0,0-3.969,1.631,15.388,15.388,0,0,0-4.125,3.4,10.97,10.97,0,0,0-2.541,5.733,13.4,13.4,0,0,0-.047,3.528,15.4,15.4,0,0,0,.85,3.659,16.27,16.27,0,0,0,4.521,6.7l.095.083-.077.1a13.459,13.459,0,0,0-2.332,4.889,14.955,14.955,0,0,0-.268,5.728,14.437,14.437,0,0,0,2.051,5.651,15.663,15.663,0,0,0,4.375,4.516,17.438,17.438,0,0,0,12.77,2.81,20.751,20.751,0,0,0,12.126-6.971l.088-.1.121.059a15.006,15.006,0,0,0,14.344-.827,14.428,14.428,0,0,0,5.493-6.623,14.7,14.7,0,0,0,.961-8.3l-.027-.144.138-.051a13.45,13.45,0,0,0,7.73-8.169,12.758,12.758,0,0,0-.723-10.682,13.614,13.614,0,0,0-8.116-6.092,13.19,13.19,0,0,0-9.389.713l-.209.1,0-.234a13.757,13.757,0,0,0-2.636-8.128,13.943,13.943,0,0,0-2.753-2.957A16.126,16.126,0,0,0,298.124,30c-.273-.166-.556-.313-.83-.47a6.04,6.04,0,0,0-.842-.416A13.372,13.372,0,0,0,293,28.067a12.945,12.945,0,0,0-1.718-.129l-.841,0-.821.089a13.775,13.775,0,0,0-5.67,2.021,15.214,15.214,0,0,0-3.786,3.309,15.041,15.041,0,0,0-2.076,3.35,13.757,13.757,0,0,0-1.105,4.162l-.017-.015c.045,0,.108-.042.125.007l-.113.016-.09.013-.037.005h-.008c0-.007,0,.016,0-.015h0l.016,0Z" transform="translate(-237.671 -27.723)" fill="#9e9e9e"/>
      <path id="Path_1096" data-name="Path 1096" d="M245.09,97.206a5.9,5.9,0,1,0,.034,0" transform="translate(-230.619 -50.282)" fill="#fafafa"/>
      <path id="Path_1097" data-name="Path 1097" d="M245.056,97.191a4.046,4.046,0,0,1,1.417.306,6.2,6.2,0,0,1,3.005,2.532,6.129,6.129,0,0,1,.907,2.6,5.446,5.446,0,0,1-.629,3.1,5.875,5.875,0,0,1-1.013,1.4,6.19,6.19,0,0,1-1.409,1.121,5.631,5.631,0,0,1-7.024-.8,6.194,6.194,0,0,1-1.12-1.409,5.877,5.877,0,0,1-.672-1.591,5.446,5.446,0,0,1,.086-3.162,6.129,6.129,0,0,1,1.47-2.331,6.2,6.2,0,0,1,3.5-1.789,4.046,4.046,0,0,1,1.449.021,12.212,12.212,0,0,0-1.427.114,6.239,6.239,0,0,0-3.343,1.828,5.943,5.943,0,0,0-1.371,2.248,5.177,5.177,0,0,0-.05,2.986,5.588,5.588,0,0,0,.647,1.5,5.9,5.9,0,0,0,1.069,1.332,5.312,5.312,0,0,0,6.612.754A5.9,5.9,0,0,0,248.5,106.9a5.591,5.591,0,0,0,.969-1.318,5.177,5.177,0,0,0,.624-2.92,5.941,5.941,0,0,0-.829-2.5,6.238,6.238,0,0,0-2.845-2.535A12.178,12.178,0,0,0,245.056,97.191Z" transform="translate(-230.551 -50.263)" fill="#9e9e9e"/>
      <path id="Path_1098" data-name="Path 1098" d="M229.854,116.236a2.553,2.553,0,1,0,.015,0" transform="translate(-226.877 -56.47)" fill="#fafafa"/>
      <path id="Path_1099" data-name="Path 1099" d="M229.8,116.213a1.192,1.192,0,0,1,.626.1,2.667,2.667,0,0,1,1.342,1.091,2.7,2.7,0,0,1,.413,1.152,2.426,2.426,0,0,1-.273,1.388,2.67,2.67,0,0,1-5.016-.573,2.425,2.425,0,0,1,.047-1.414,2.7,2.7,0,0,1,.662-1.029,2.667,2.667,0,0,1,1.553-.761,1.194,1.194,0,0,1,.631.047c0,.032-.227.008-.609.088a2.706,2.706,0,0,0-1.4.8,2.256,2.256,0,0,0-.574,2.184,2.36,2.36,0,0,0,4.418.5,2.256,2.256,0,0,0-.068-2.257,2.7,2.7,0,0,0-1.182-1.094C230.021,116.271,229.8,116.244,229.8,116.213Z" transform="translate(-226.811 -56.445)" fill="#9e9e9e"/>
    </g>
    <text id="_" data-name="?" transform="translate(189 45.268)" fill="#c9c9c9" font-size="30" font-family="Roboto-Medium, Roboto" font-weight="500" letter-spacing="-0.03em"><tspan x="-7.295" y="0">?</tspan></text>
  </g>
</svg>
